:2000000003450040034F004002520040010101401C0201401D03014004050140031501408C
:200020000117014001190140031B0140064001400B410140084201400143014003480140FD
:2000400010490140074C0140054D01400250014002510140030104010F030A4B0D20164BBA
:200060006002640386040001070216031A041F0124082E0830023102320434083501360126
:20008000580459045C115F018E0392049401B004B202B401B880BE40D804DC01DF010040F2
:2000A000050109010A100E200F041748184019801A181D011E201F60274837403D088104C8
:2000C00087408B049608A720B320C011C26CC4A0CC10CE40E420EA80B180B501E810EE808A
:2000E000E008E401EA05E608E608E008E401EA053140330236108540CC70E610020803407C
:200100000720820887028B20A702B210C070E020E2103E10624066409A40B240B740CE2026
:20012000D6C0961085089610E6101220164075087B02822086409908A302AA10AB02C430CF
:20014000DC80DE20E010E480EAA0132814407B107F408440C40EDE03831087409780A710EF
:20016000AB2800020802003F03C000001F1F00000000000003000000030003000000000057
:20018000800B0B0000000000007F7F0000000000000F0F00000000000000000000000000AD
:00000001FF
