ARM GAS  C:\Users\dmarsch\AppData\Local\Temp\ccUnypUV.s 			page 1


   1              		.syntax unified
   2              		.cpu cortex-m3
   3              		.fpu softvfp
   4              		.eabi_attribute 20, 1
   5              		.eabi_attribute 21, 1
   6              		.eabi_attribute 23, 3
   7              		.eabi_attribute 24, 1
   8              		.eabi_attribute 25, 1
   9              		.eabi_attribute 26, 1
  10              		.eabi_attribute 30, 1
  11              		.eabi_attribute 34, 1
  12              		.eabi_attribute 18, 4
  13              		.thumb
  14              		.syntax unified
  15              		.file	"MODE_ISR.c"
  16              		.text
  17              	.Ltext0:
  18              		.cfi_sections	.debug_frame
  19              		.section	.text.MODE_ISR_Interrupt,"ax",%progbits
  20              		.align	2
  21              		.global	MODE_ISR_Interrupt
  22              		.thumb
  23              		.thumb_func
  24              		.type	MODE_ISR_Interrupt, %function
  25              	MODE_ISR_Interrupt:
  26              	.LFB3:
  27              		.file 1 "Generated_Source\\PSoC5\\MODE_ISR.c"
   1:Generated_Source\PSoC5/MODE_ISR.c **** /*******************************************************************************
   2:Generated_Source\PSoC5/MODE_ISR.c **** * File Name: MODE_ISR.c  
   3:Generated_Source\PSoC5/MODE_ISR.c **** * Version 1.70
   4:Generated_Source\PSoC5/MODE_ISR.c **** *
   5:Generated_Source\PSoC5/MODE_ISR.c **** *  Description:
   6:Generated_Source\PSoC5/MODE_ISR.c **** *   API for controlling the state of an interrupt.
   7:Generated_Source\PSoC5/MODE_ISR.c **** *
   8:Generated_Source\PSoC5/MODE_ISR.c **** *
   9:Generated_Source\PSoC5/MODE_ISR.c **** *  Note:
  10:Generated_Source\PSoC5/MODE_ISR.c **** *
  11:Generated_Source\PSoC5/MODE_ISR.c **** ********************************************************************************
  12:Generated_Source\PSoC5/MODE_ISR.c **** * Copyright 2008-2015, Cypress Semiconductor Corporation.  All rights reserved.
  13:Generated_Source\PSoC5/MODE_ISR.c **** * You may use this file only in accordance with the license, terms, conditions, 
  14:Generated_Source\PSoC5/MODE_ISR.c **** * disclaimers, and limitations in the end user license agreement accompanying 
  15:Generated_Source\PSoC5/MODE_ISR.c **** * the software package with which this file was provided.
  16:Generated_Source\PSoC5/MODE_ISR.c **** *******************************************************************************/
  17:Generated_Source\PSoC5/MODE_ISR.c **** 
  18:Generated_Source\PSoC5/MODE_ISR.c **** 
  19:Generated_Source\PSoC5/MODE_ISR.c **** #include <cydevice_trm.h>
  20:Generated_Source\PSoC5/MODE_ISR.c **** #include <CyLib.h>
  21:Generated_Source\PSoC5/MODE_ISR.c **** #include <MODE_ISR.h>
  22:Generated_Source\PSoC5/MODE_ISR.c **** #include "cyapicallbacks.h"
  23:Generated_Source\PSoC5/MODE_ISR.c **** 
  24:Generated_Source\PSoC5/MODE_ISR.c **** #if !defined(MODE_ISR__REMOVED) /* Check for removal by optimization */
  25:Generated_Source\PSoC5/MODE_ISR.c **** 
  26:Generated_Source\PSoC5/MODE_ISR.c **** /*******************************************************************************
  27:Generated_Source\PSoC5/MODE_ISR.c **** *  Place your includes, defines and code here 
  28:Generated_Source\PSoC5/MODE_ISR.c **** ********************************************************************************/
  29:Generated_Source\PSoC5/MODE_ISR.c **** /* `#START MODE_ISR_intc` */
  30:Generated_Source\PSoC5/MODE_ISR.c **** #include "MODE.h"
ARM GAS  C:\Users\dmarsch\AppData\Local\Temp\ccUnypUV.s 			page 2


  31:Generated_Source\PSoC5/MODE_ISR.c **** #include "Tout.h"
  32:Generated_Source\PSoC5/MODE_ISR.c **** #include "MOTOR.h"
  33:Generated_Source\PSoC5/MODE_ISR.c **** #include "MOTOR_ISR.h"
  34:Generated_Source\PSoC5/MODE_ISR.c **** #include "TOUT_ISR.h"
  35:Generated_Source\PSoC5/MODE_ISR.c **** extern void access_config(uint8 slave_address, uint8 setting);
  36:Generated_Source\PSoC5/MODE_ISR.c **** extern void write_deadband(uint8 slave_address, uint8 setpoint, uint8 TOL);
  37:Generated_Source\PSoC5/MODE_ISR.c **** extern volatile int mode;
  38:Generated_Source\PSoC5/MODE_ISR.c **** extern uint8 slave_address;
  39:Generated_Source\PSoC5/MODE_ISR.c **** extern uint8 setpoint;
  40:Generated_Source\PSoC5/MODE_ISR.c **** extern uint8 TOL;
  41:Generated_Source\PSoC5/MODE_ISR.c **** 
  42:Generated_Source\PSoC5/MODE_ISR.c **** 
  43:Generated_Source\PSoC5/MODE_ISR.c **** uint8 setting;
  44:Generated_Source\PSoC5/MODE_ISR.c **** uint8 POL;
  45:Generated_Source\PSoC5/MODE_ISR.c **** #define OFF     0
  46:Generated_Source\PSoC5/MODE_ISR.c **** #define COOLING 1
  47:Generated_Source\PSoC5/MODE_ISR.c **** #define HEATING 2
  48:Generated_Source\PSoC5/MODE_ISR.c **** /* `#END` */
  49:Generated_Source\PSoC5/MODE_ISR.c **** 
  50:Generated_Source\PSoC5/MODE_ISR.c **** #ifndef CYINT_IRQ_BASE
  51:Generated_Source\PSoC5/MODE_ISR.c **** #define CYINT_IRQ_BASE      16
  52:Generated_Source\PSoC5/MODE_ISR.c **** #endif /* CYINT_IRQ_BASE */
  53:Generated_Source\PSoC5/MODE_ISR.c **** #ifndef CYINT_VECT_TABLE
  54:Generated_Source\PSoC5/MODE_ISR.c **** #define CYINT_VECT_TABLE    ((cyisraddress **) CYREG_NVIC_VECT_OFFSET)
  55:Generated_Source\PSoC5/MODE_ISR.c **** #endif /* CYINT_VECT_TABLE */
  56:Generated_Source\PSoC5/MODE_ISR.c **** 
  57:Generated_Source\PSoC5/MODE_ISR.c **** /* Declared in startup, used to set unused interrupts to. */
  58:Generated_Source\PSoC5/MODE_ISR.c **** CY_ISR_PROTO(IntDefaultHandler);
  59:Generated_Source\PSoC5/MODE_ISR.c **** 
  60:Generated_Source\PSoC5/MODE_ISR.c **** 
  61:Generated_Source\PSoC5/MODE_ISR.c **** /*******************************************************************************
  62:Generated_Source\PSoC5/MODE_ISR.c **** * Function Name: MODE_ISR_Start
  63:Generated_Source\PSoC5/MODE_ISR.c **** ********************************************************************************
  64:Generated_Source\PSoC5/MODE_ISR.c **** *
  65:Generated_Source\PSoC5/MODE_ISR.c **** * Summary:
  66:Generated_Source\PSoC5/MODE_ISR.c **** *  Set up the interrupt and enable it. This function disables the interrupt, 
  67:Generated_Source\PSoC5/MODE_ISR.c **** *  sets the default interrupt vector, sets the priority from the value in the
  68:Generated_Source\PSoC5/MODE_ISR.c **** *  Design Wide Resources Interrupt Editor, then enables the interrupt to the 
  69:Generated_Source\PSoC5/MODE_ISR.c **** *  interrupt controller.
  70:Generated_Source\PSoC5/MODE_ISR.c **** *
  71:Generated_Source\PSoC5/MODE_ISR.c **** * Parameters:  
  72:Generated_Source\PSoC5/MODE_ISR.c **** *   None
  73:Generated_Source\PSoC5/MODE_ISR.c **** *
  74:Generated_Source\PSoC5/MODE_ISR.c **** * Return:
  75:Generated_Source\PSoC5/MODE_ISR.c **** *   None
  76:Generated_Source\PSoC5/MODE_ISR.c **** *
  77:Generated_Source\PSoC5/MODE_ISR.c **** *******************************************************************************/
  78:Generated_Source\PSoC5/MODE_ISR.c **** void MODE_ISR_Start(void)
  79:Generated_Source\PSoC5/MODE_ISR.c **** {
  80:Generated_Source\PSoC5/MODE_ISR.c ****     /* For all we know the interrupt is active. */
  81:Generated_Source\PSoC5/MODE_ISR.c ****     MODE_ISR_Disable();
  82:Generated_Source\PSoC5/MODE_ISR.c **** 
  83:Generated_Source\PSoC5/MODE_ISR.c ****     /* Set the ISR to point to the MODE_ISR Interrupt. */
  84:Generated_Source\PSoC5/MODE_ISR.c ****     MODE_ISR_SetVector(&MODE_ISR_Interrupt);
  85:Generated_Source\PSoC5/MODE_ISR.c **** 
  86:Generated_Source\PSoC5/MODE_ISR.c ****     /* Set the priority. */
  87:Generated_Source\PSoC5/MODE_ISR.c ****     MODE_ISR_SetPriority((uint8)MODE_ISR_INTC_PRIOR_NUMBER);
ARM GAS  C:\Users\dmarsch\AppData\Local\Temp\ccUnypUV.s 			page 3


  88:Generated_Source\PSoC5/MODE_ISR.c **** 
  89:Generated_Source\PSoC5/MODE_ISR.c ****     /* Enable it. */
  90:Generated_Source\PSoC5/MODE_ISR.c ****     MODE_ISR_Enable();
  91:Generated_Source\PSoC5/MODE_ISR.c **** }
  92:Generated_Source\PSoC5/MODE_ISR.c **** 
  93:Generated_Source\PSoC5/MODE_ISR.c **** 
  94:Generated_Source\PSoC5/MODE_ISR.c **** /*******************************************************************************
  95:Generated_Source\PSoC5/MODE_ISR.c **** * Function Name: MODE_ISR_StartEx
  96:Generated_Source\PSoC5/MODE_ISR.c **** ********************************************************************************
  97:Generated_Source\PSoC5/MODE_ISR.c **** *
  98:Generated_Source\PSoC5/MODE_ISR.c **** * Summary:
  99:Generated_Source\PSoC5/MODE_ISR.c **** *  Sets up the interrupt and enables it. This function disables the interrupt,
 100:Generated_Source\PSoC5/MODE_ISR.c **** *  sets the interrupt vector based on the address passed in, sets the priority 
 101:Generated_Source\PSoC5/MODE_ISR.c **** *  from the value in the Design Wide Resources Interrupt Editor, then enables 
 102:Generated_Source\PSoC5/MODE_ISR.c **** *  the interrupt to the interrupt controller.
 103:Generated_Source\PSoC5/MODE_ISR.c **** *  
 104:Generated_Source\PSoC5/MODE_ISR.c **** *  When defining ISR functions, the CY_ISR and CY_ISR_PROTO macros should be 
 105:Generated_Source\PSoC5/MODE_ISR.c **** *  used to provide consistent definition across compilers:
 106:Generated_Source\PSoC5/MODE_ISR.c **** *  
 107:Generated_Source\PSoC5/MODE_ISR.c **** *  Function definition example:
 108:Generated_Source\PSoC5/MODE_ISR.c **** *   CY_ISR(MyISR)
 109:Generated_Source\PSoC5/MODE_ISR.c **** *   {
 110:Generated_Source\PSoC5/MODE_ISR.c **** *   }
 111:Generated_Source\PSoC5/MODE_ISR.c **** *   Function prototype example:
 112:Generated_Source\PSoC5/MODE_ISR.c **** *   CY_ISR_PROTO(MyISR);
 113:Generated_Source\PSoC5/MODE_ISR.c **** *
 114:Generated_Source\PSoC5/MODE_ISR.c **** * Parameters:  
 115:Generated_Source\PSoC5/MODE_ISR.c **** *   address: Address of the ISR to set in the interrupt vector table.
 116:Generated_Source\PSoC5/MODE_ISR.c **** *
 117:Generated_Source\PSoC5/MODE_ISR.c **** * Return:
 118:Generated_Source\PSoC5/MODE_ISR.c **** *   None
 119:Generated_Source\PSoC5/MODE_ISR.c **** *
 120:Generated_Source\PSoC5/MODE_ISR.c **** *******************************************************************************/
 121:Generated_Source\PSoC5/MODE_ISR.c **** void MODE_ISR_StartEx(cyisraddress address)
 122:Generated_Source\PSoC5/MODE_ISR.c **** {
 123:Generated_Source\PSoC5/MODE_ISR.c ****     /* For all we know the interrupt is active. */
 124:Generated_Source\PSoC5/MODE_ISR.c ****     MODE_ISR_Disable();
 125:Generated_Source\PSoC5/MODE_ISR.c **** 
 126:Generated_Source\PSoC5/MODE_ISR.c ****     /* Set the ISR to point to the MODE_ISR Interrupt. */
 127:Generated_Source\PSoC5/MODE_ISR.c ****     MODE_ISR_SetVector(address);
 128:Generated_Source\PSoC5/MODE_ISR.c **** 
 129:Generated_Source\PSoC5/MODE_ISR.c ****     /* Set the priority. */
 130:Generated_Source\PSoC5/MODE_ISR.c ****     MODE_ISR_SetPriority((uint8)MODE_ISR_INTC_PRIOR_NUMBER);
 131:Generated_Source\PSoC5/MODE_ISR.c **** 
 132:Generated_Source\PSoC5/MODE_ISR.c ****     /* Enable it. */
 133:Generated_Source\PSoC5/MODE_ISR.c ****     MODE_ISR_Enable();
 134:Generated_Source\PSoC5/MODE_ISR.c **** }
 135:Generated_Source\PSoC5/MODE_ISR.c **** 
 136:Generated_Source\PSoC5/MODE_ISR.c **** 
 137:Generated_Source\PSoC5/MODE_ISR.c **** /*******************************************************************************
 138:Generated_Source\PSoC5/MODE_ISR.c **** * Function Name: MODE_ISR_Stop
 139:Generated_Source\PSoC5/MODE_ISR.c **** ********************************************************************************
 140:Generated_Source\PSoC5/MODE_ISR.c **** *
 141:Generated_Source\PSoC5/MODE_ISR.c **** * Summary:
 142:Generated_Source\PSoC5/MODE_ISR.c **** *   Disables and removes the interrupt.
 143:Generated_Source\PSoC5/MODE_ISR.c **** *
 144:Generated_Source\PSoC5/MODE_ISR.c **** * Parameters:  
ARM GAS  C:\Users\dmarsch\AppData\Local\Temp\ccUnypUV.s 			page 4


 145:Generated_Source\PSoC5/MODE_ISR.c **** *   None
 146:Generated_Source\PSoC5/MODE_ISR.c **** *
 147:Generated_Source\PSoC5/MODE_ISR.c **** * Return:
 148:Generated_Source\PSoC5/MODE_ISR.c **** *   None
 149:Generated_Source\PSoC5/MODE_ISR.c **** *
 150:Generated_Source\PSoC5/MODE_ISR.c **** *******************************************************************************/
 151:Generated_Source\PSoC5/MODE_ISR.c **** void MODE_ISR_Stop(void)
 152:Generated_Source\PSoC5/MODE_ISR.c **** {
 153:Generated_Source\PSoC5/MODE_ISR.c ****     /* Disable this interrupt. */
 154:Generated_Source\PSoC5/MODE_ISR.c ****     MODE_ISR_Disable();
 155:Generated_Source\PSoC5/MODE_ISR.c **** 
 156:Generated_Source\PSoC5/MODE_ISR.c ****     /* Set the ISR to point to the passive one. */
 157:Generated_Source\PSoC5/MODE_ISR.c ****     MODE_ISR_SetVector(&IntDefaultHandler);
 158:Generated_Source\PSoC5/MODE_ISR.c **** }
 159:Generated_Source\PSoC5/MODE_ISR.c **** 
 160:Generated_Source\PSoC5/MODE_ISR.c **** 
 161:Generated_Source\PSoC5/MODE_ISR.c **** /*******************************************************************************
 162:Generated_Source\PSoC5/MODE_ISR.c **** * Function Name: MODE_ISR_Interrupt
 163:Generated_Source\PSoC5/MODE_ISR.c **** ********************************************************************************
 164:Generated_Source\PSoC5/MODE_ISR.c **** *
 165:Generated_Source\PSoC5/MODE_ISR.c **** * Summary:
 166:Generated_Source\PSoC5/MODE_ISR.c **** *   The default Interrupt Service Routine for MODE_ISR.
 167:Generated_Source\PSoC5/MODE_ISR.c **** *
 168:Generated_Source\PSoC5/MODE_ISR.c **** *   Add custom code between the coments to keep the next version of this file
 169:Generated_Source\PSoC5/MODE_ISR.c **** *   from over writting your code.
 170:Generated_Source\PSoC5/MODE_ISR.c **** *
 171:Generated_Source\PSoC5/MODE_ISR.c **** * Parameters:  
 172:Generated_Source\PSoC5/MODE_ISR.c **** *
 173:Generated_Source\PSoC5/MODE_ISR.c **** * Return:
 174:Generated_Source\PSoC5/MODE_ISR.c **** *   None
 175:Generated_Source\PSoC5/MODE_ISR.c **** *
 176:Generated_Source\PSoC5/MODE_ISR.c **** *******************************************************************************/
 177:Generated_Source\PSoC5/MODE_ISR.c **** CY_ISR(MODE_ISR_Interrupt)
 178:Generated_Source\PSoC5/MODE_ISR.c **** {
  28              		.loc 1 178 0
  29              		.cfi_startproc
  30              		@ args = 0, pretend = 0, frame = 0
  31              		@ frame_needed = 0, uses_anonymous_args = 0
  32 0000 38B5     		push	{r3, r4, r5, lr}
  33              		.cfi_def_cfa_offset 16
  34              		.cfi_offset 3, -16
  35              		.cfi_offset 4, -12
  36              		.cfi_offset 5, -8
  37              		.cfi_offset 14, -4
 179:Generated_Source\PSoC5/MODE_ISR.c ****     #ifdef MODE_ISR_INTERRUPT_INTERRUPT_CALLBACK
 180:Generated_Source\PSoC5/MODE_ISR.c ****         MODE_ISR_Interrupt_InterruptCallback();
 181:Generated_Source\PSoC5/MODE_ISR.c ****     #endif /* MODE_ISR_INTERRUPT_INTERRUPT_CALLBACK */ 
 182:Generated_Source\PSoC5/MODE_ISR.c **** 
 183:Generated_Source\PSoC5/MODE_ISR.c ****     /*  Place your Interrupt code here. */
 184:Generated_Source\PSoC5/MODE_ISR.c ****     /* `#START MODE_ISR_Interrupt` */
 185:Generated_Source\PSoC5/MODE_ISR.c ****     CyGlobalIntEnable;
  38              		.loc 1 185 0
  39              		.syntax unified
  40              	@ 185 "Generated_Source\PSoC5\MODE_ISR.c" 1
  41 0002 62B6     		CPSIE   i
  42              	@ 0 "" 2
 186:Generated_Source\PSoC5/MODE_ISR.c ****     switch(mode)
ARM GAS  C:\Users\dmarsch\AppData\Local\Temp\ccUnypUV.s 			page 5


  43              		.loc 1 186 0
  44              		.thumb
  45              		.syntax unified
  46 0004 224B     		ldr	r3, .L9
  47 0006 1B68     		ldr	r3, [r3]
  48 0008 012B     		cmp	r3, #1
  49 000a 18D0     		beq	.L3
  50 000c 022B     		cmp	r3, #2
  51 000e 2BD0     		beq	.L4
  52 0010 002B     		cmp	r3, #0
  53 0012 33D1     		bne	.L7
 187:Generated_Source\PSoC5/MODE_ISR.c ****     {
 188:Generated_Source\PSoC5/MODE_ISR.c ****         case OFF:
 189:Generated_Source\PSoC5/MODE_ISR.c ****             mode = COOLING;
  54              		.loc 1 189 0
  55 0014 0122     		movs	r2, #1
  56 0016 1E4B     		ldr	r3, .L9
  57 0018 1A60     		str	r2, [r3]
 190:Generated_Source\PSoC5/MODE_ISR.c ****             POL = 2;                    //set polarity bit to 1 for heating in config register
  58              		.loc 1 190 0
  59 001a 1E4D     		ldr	r5, .L9+4
  60 001c 0223     		movs	r3, #2
  61 001e 2B70     		strb	r3, [r5]
 191:Generated_Source\PSoC5/MODE_ISR.c ****             write_deadband(slave_address, setpoint, TOL);
  62              		.loc 1 191 0
  63 0020 1D4C     		ldr	r4, .L9+8
  64 0022 1E4B     		ldr	r3, .L9+12
  65 0024 1A78     		ldrb	r2, [r3]	@ zero_extendqisi2
  66 0026 1E4B     		ldr	r3, .L9+16
  67 0028 1978     		ldrb	r1, [r3]	@ zero_extendqisi2
  68 002a 2078     		ldrb	r0, [r4]	@ zero_extendqisi2
  69 002c FFF7FEFF 		bl	write_deadband
  70              	.LVL0:
 192:Generated_Source\PSoC5/MODE_ISR.c ****             access_config(slave_address,POL);
  71              		.loc 1 192 0
  72 0030 2978     		ldrb	r1, [r5]	@ zero_extendqisi2
  73 0032 2078     		ldrb	r0, [r4]	@ zero_extendqisi2
  74 0034 FFF7FEFF 		bl	access_config
  75              	.LVL1:
 193:Generated_Source\PSoC5/MODE_ISR.c ****             TOUT_ISR_Start();        
  76              		.loc 1 193 0
  77 0038 FFF7FEFF 		bl	TOUT_ISR_Start
  78              	.LVL2:
 194:Generated_Source\PSoC5/MODE_ISR.c ****             break;
  79              		.loc 1 194 0
  80 003c 38BD     		pop	{r3, r4, r5, pc}
  81              	.L3:
 195:Generated_Source\PSoC5/MODE_ISR.c ****         case COOLING:
 196:Generated_Source\PSoC5/MODE_ISR.c ****             mode = HEATING;
  82              		.loc 1 196 0
  83 003e 0222     		movs	r2, #2
  84 0040 134B     		ldr	r3, .L9
  85 0042 1A60     		str	r2, [r3]
 197:Generated_Source\PSoC5/MODE_ISR.c ****             POL = 0;                    //set polarity bit to 0 for heating
  86              		.loc 1 197 0
  87 0044 134D     		ldr	r5, .L9+4
  88 0046 0023     		movs	r3, #0
ARM GAS  C:\Users\dmarsch\AppData\Local\Temp\ccUnypUV.s 			page 6


  89 0048 2B70     		strb	r3, [r5]
 198:Generated_Source\PSoC5/MODE_ISR.c ****             write_deadband(slave_address, setpoint, TOL);
  90              		.loc 1 198 0
  91 004a 134C     		ldr	r4, .L9+8
  92 004c 134B     		ldr	r3, .L9+12
  93 004e 1A78     		ldrb	r2, [r3]	@ zero_extendqisi2
  94 0050 134B     		ldr	r3, .L9+16
  95 0052 1978     		ldrb	r1, [r3]	@ zero_extendqisi2
  96 0054 2078     		ldrb	r0, [r4]	@ zero_extendqisi2
  97 0056 FFF7FEFF 		bl	write_deadband
  98              	.LVL3:
 199:Generated_Source\PSoC5/MODE_ISR.c ****             access_config(slave_address,POL);
  99              		.loc 1 199 0
 100 005a 2978     		ldrb	r1, [r5]	@ zero_extendqisi2
 101 005c 2078     		ldrb	r0, [r4]	@ zero_extendqisi2
 102 005e FFF7FEFF 		bl	access_config
 103              	.LVL4:
 200:Generated_Source\PSoC5/MODE_ISR.c ****             TOUT_ISR_Start();
 104              		.loc 1 200 0
 105 0062 FFF7FEFF 		bl	TOUT_ISR_Start
 106              	.LVL5:
 201:Generated_Source\PSoC5/MODE_ISR.c ****             break;
 107              		.loc 1 201 0
 108 0066 38BD     		pop	{r3, r4, r5, pc}
 109              	.L4:
 202:Generated_Source\PSoC5/MODE_ISR.c ****         case HEATING:
 203:Generated_Source\PSoC5/MODE_ISR.c ****             mode = OFF;
 110              		.loc 1 203 0
 111 0068 0020     		movs	r0, #0
 112 006a 094B     		ldr	r3, .L9
 113 006c 1860     		str	r0, [r3]
 204:Generated_Source\PSoC5/MODE_ISR.c ****             MOTOR_Write(0);
 114              		.loc 1 204 0
 115 006e FFF7FEFF 		bl	MOTOR_Write
 116              	.LVL6:
 205:Generated_Source\PSoC5/MODE_ISR.c ****             MOTOR_ISR_Stop();
 117              		.loc 1 205 0
 118 0072 FFF7FEFF 		bl	MOTOR_ISR_Stop
 119              	.LVL7:
 206:Generated_Source\PSoC5/MODE_ISR.c ****             TOUT_ISR_Stop();
 120              		.loc 1 206 0
 121 0076 FFF7FEFF 		bl	TOUT_ISR_Stop
 122              	.LVL8:
 207:Generated_Source\PSoC5/MODE_ISR.c ****             break;
 123              		.loc 1 207 0
 124 007a 38BD     		pop	{r3, r4, r5, pc}
 125              	.L7:
 208:Generated_Source\PSoC5/MODE_ISR.c ****         default:
 209:Generated_Source\PSoC5/MODE_ISR.c ****             mode = OFF;
 126              		.loc 1 209 0
 127 007c 0020     		movs	r0, #0
 128 007e 044B     		ldr	r3, .L9
 129 0080 1860     		str	r0, [r3]
 210:Generated_Source\PSoC5/MODE_ISR.c ****             MOTOR_Write(0);
 130              		.loc 1 210 0
 131 0082 FFF7FEFF 		bl	MOTOR_Write
 132              	.LVL9:
ARM GAS  C:\Users\dmarsch\AppData\Local\Temp\ccUnypUV.s 			page 7


 211:Generated_Source\PSoC5/MODE_ISR.c ****             MOTOR_ISR_Stop();
 133              		.loc 1 211 0
 134 0086 FFF7FEFF 		bl	MOTOR_ISR_Stop
 135              	.LVL10:
 212:Generated_Source\PSoC5/MODE_ISR.c ****             TOUT_ISR_Stop();
 136              		.loc 1 212 0
 137 008a FFF7FEFF 		bl	TOUT_ISR_Stop
 138              	.LVL11:
 139 008e 38BD     		pop	{r3, r4, r5, pc}
 140              	.L10:
 141              		.align	2
 142              	.L9:
 143 0090 00000000 		.word	mode
 144 0094 00000000 		.word	POL
 145 0098 00000000 		.word	slave_address
 146 009c 00000000 		.word	TOL
 147 00a0 00000000 		.word	setpoint
 148              		.cfi_endproc
 149              	.LFE3:
 150              		.size	MODE_ISR_Interrupt, .-MODE_ISR_Interrupt
 151              		.section	.text.MODE_ISR_SetVector,"ax",%progbits
 152              		.align	2
 153              		.global	MODE_ISR_SetVector
 154              		.thumb
 155              		.thumb_func
 156              		.type	MODE_ISR_SetVector, %function
 157              	MODE_ISR_SetVector:
 158              	.LFB4:
 213:Generated_Source\PSoC5/MODE_ISR.c ****             break;
 214:Generated_Source\PSoC5/MODE_ISR.c ****     }
 215:Generated_Source\PSoC5/MODE_ISR.c **** //    access_config(slave_address,POL);
 216:Generated_Source\PSoC5/MODE_ISR.c ****     /* `#END` */
 217:Generated_Source\PSoC5/MODE_ISR.c **** }
 218:Generated_Source\PSoC5/MODE_ISR.c **** 
 219:Generated_Source\PSoC5/MODE_ISR.c **** 
 220:Generated_Source\PSoC5/MODE_ISR.c **** /*******************************************************************************
 221:Generated_Source\PSoC5/MODE_ISR.c **** * Function Name: MODE_ISR_SetVector
 222:Generated_Source\PSoC5/MODE_ISR.c **** ********************************************************************************
 223:Generated_Source\PSoC5/MODE_ISR.c **** *
 224:Generated_Source\PSoC5/MODE_ISR.c **** * Summary:
 225:Generated_Source\PSoC5/MODE_ISR.c **** *   Change the ISR vector for the Interrupt. Note calling MODE_ISR_Start
 226:Generated_Source\PSoC5/MODE_ISR.c **** *   will override any effect this method would have had. To set the vector 
 227:Generated_Source\PSoC5/MODE_ISR.c **** *   before the component has been started use MODE_ISR_StartEx instead.
 228:Generated_Source\PSoC5/MODE_ISR.c **** * 
 229:Generated_Source\PSoC5/MODE_ISR.c **** *   When defining ISR functions, the CY_ISR and CY_ISR_PROTO macros should be 
 230:Generated_Source\PSoC5/MODE_ISR.c **** *   used to provide consistent definition across compilers:
 231:Generated_Source\PSoC5/MODE_ISR.c **** *
 232:Generated_Source\PSoC5/MODE_ISR.c **** *   Function definition example:
 233:Generated_Source\PSoC5/MODE_ISR.c **** *   CY_ISR(MyISR)
 234:Generated_Source\PSoC5/MODE_ISR.c **** *   {
 235:Generated_Source\PSoC5/MODE_ISR.c **** *   }
 236:Generated_Source\PSoC5/MODE_ISR.c **** *
 237:Generated_Source\PSoC5/MODE_ISR.c **** *   Function prototype example:
 238:Generated_Source\PSoC5/MODE_ISR.c **** *     CY_ISR_PROTO(MyISR);
 239:Generated_Source\PSoC5/MODE_ISR.c **** *
 240:Generated_Source\PSoC5/MODE_ISR.c **** * Parameters:
 241:Generated_Source\PSoC5/MODE_ISR.c **** *   address: Address of the ISR to set in the interrupt vector table.
ARM GAS  C:\Users\dmarsch\AppData\Local\Temp\ccUnypUV.s 			page 8


 242:Generated_Source\PSoC5/MODE_ISR.c **** *
 243:Generated_Source\PSoC5/MODE_ISR.c **** * Return:
 244:Generated_Source\PSoC5/MODE_ISR.c **** *   None
 245:Generated_Source\PSoC5/MODE_ISR.c **** *
 246:Generated_Source\PSoC5/MODE_ISR.c **** *******************************************************************************/
 247:Generated_Source\PSoC5/MODE_ISR.c **** void MODE_ISR_SetVector(cyisraddress address)
 248:Generated_Source\PSoC5/MODE_ISR.c **** {
 159              		.loc 1 248 0
 160              		.cfi_startproc
 161              		@ args = 0, pretend = 0, frame = 0
 162              		@ frame_needed = 0, uses_anonymous_args = 0
 163              		@ link register save eliminated.
 164              	.LVL12:
 249:Generated_Source\PSoC5/MODE_ISR.c ****     cyisraddress * ramVectorTable;
 250:Generated_Source\PSoC5/MODE_ISR.c **** 
 251:Generated_Source\PSoC5/MODE_ISR.c ****     ramVectorTable = (cyisraddress *) *CYINT_VECT_TABLE;
 165              		.loc 1 251 0
 166 0000 014B     		ldr	r3, .L12
 167 0002 1B68     		ldr	r3, [r3]
 168              	.LVL13:
 252:Generated_Source\PSoC5/MODE_ISR.c **** 
 253:Generated_Source\PSoC5/MODE_ISR.c ****     ramVectorTable[CYINT_IRQ_BASE + (uint32)MODE_ISR__INTC_NUMBER] = address;
 169              		.loc 1 253 0
 170 0004 1864     		str	r0, [r3, #64]
 171 0006 7047     		bx	lr
 172              	.L13:
 173              		.align	2
 174              	.L12:
 175 0008 08ED00E0 		.word	-536810232
 176              		.cfi_endproc
 177              	.LFE4:
 178              		.size	MODE_ISR_SetVector, .-MODE_ISR_SetVector
 179              		.section	.text.MODE_ISR_GetVector,"ax",%progbits
 180              		.align	2
 181              		.global	MODE_ISR_GetVector
 182              		.thumb
 183              		.thumb_func
 184              		.type	MODE_ISR_GetVector, %function
 185              	MODE_ISR_GetVector:
 186              	.LFB5:
 254:Generated_Source\PSoC5/MODE_ISR.c **** }
 255:Generated_Source\PSoC5/MODE_ISR.c **** 
 256:Generated_Source\PSoC5/MODE_ISR.c **** 
 257:Generated_Source\PSoC5/MODE_ISR.c **** /*******************************************************************************
 258:Generated_Source\PSoC5/MODE_ISR.c **** * Function Name: MODE_ISR_GetVector
 259:Generated_Source\PSoC5/MODE_ISR.c **** ********************************************************************************
 260:Generated_Source\PSoC5/MODE_ISR.c **** *
 261:Generated_Source\PSoC5/MODE_ISR.c **** * Summary:
 262:Generated_Source\PSoC5/MODE_ISR.c **** *   Gets the "address" of the current ISR vector for the Interrupt.
 263:Generated_Source\PSoC5/MODE_ISR.c **** *
 264:Generated_Source\PSoC5/MODE_ISR.c **** * Parameters:
 265:Generated_Source\PSoC5/MODE_ISR.c **** *   None
 266:Generated_Source\PSoC5/MODE_ISR.c **** *
 267:Generated_Source\PSoC5/MODE_ISR.c **** * Return:
 268:Generated_Source\PSoC5/MODE_ISR.c **** *   Address of the ISR in the interrupt vector table.
 269:Generated_Source\PSoC5/MODE_ISR.c **** *
 270:Generated_Source\PSoC5/MODE_ISR.c **** *******************************************************************************/
ARM GAS  C:\Users\dmarsch\AppData\Local\Temp\ccUnypUV.s 			page 9


 271:Generated_Source\PSoC5/MODE_ISR.c **** cyisraddress MODE_ISR_GetVector(void)
 272:Generated_Source\PSoC5/MODE_ISR.c **** {
 187              		.loc 1 272 0
 188              		.cfi_startproc
 189              		@ args = 0, pretend = 0, frame = 0
 190              		@ frame_needed = 0, uses_anonymous_args = 0
 191              		@ link register save eliminated.
 273:Generated_Source\PSoC5/MODE_ISR.c ****     cyisraddress * ramVectorTable;
 274:Generated_Source\PSoC5/MODE_ISR.c **** 
 275:Generated_Source\PSoC5/MODE_ISR.c ****     ramVectorTable = (cyisraddress *) *CYINT_VECT_TABLE;
 192              		.loc 1 275 0
 193 0000 014B     		ldr	r3, .L15
 194 0002 1B68     		ldr	r3, [r3]
 195              	.LVL14:
 276:Generated_Source\PSoC5/MODE_ISR.c **** 
 277:Generated_Source\PSoC5/MODE_ISR.c ****     return ramVectorTable[CYINT_IRQ_BASE + (uint32)MODE_ISR__INTC_NUMBER];
 278:Generated_Source\PSoC5/MODE_ISR.c **** }
 196              		.loc 1 278 0
 197 0004 186C     		ldr	r0, [r3, #64]
 198 0006 7047     		bx	lr
 199              	.L16:
 200              		.align	2
 201              	.L15:
 202 0008 08ED00E0 		.word	-536810232
 203              		.cfi_endproc
 204              	.LFE5:
 205              		.size	MODE_ISR_GetVector, .-MODE_ISR_GetVector
 206              		.section	.text.MODE_ISR_SetPriority,"ax",%progbits
 207              		.align	2
 208              		.global	MODE_ISR_SetPriority
 209              		.thumb
 210              		.thumb_func
 211              		.type	MODE_ISR_SetPriority, %function
 212              	MODE_ISR_SetPriority:
 213              	.LFB6:
 279:Generated_Source\PSoC5/MODE_ISR.c **** 
 280:Generated_Source\PSoC5/MODE_ISR.c **** 
 281:Generated_Source\PSoC5/MODE_ISR.c **** /*******************************************************************************
 282:Generated_Source\PSoC5/MODE_ISR.c **** * Function Name: MODE_ISR_SetPriority
 283:Generated_Source\PSoC5/MODE_ISR.c **** ********************************************************************************
 284:Generated_Source\PSoC5/MODE_ISR.c **** *
 285:Generated_Source\PSoC5/MODE_ISR.c **** * Summary:
 286:Generated_Source\PSoC5/MODE_ISR.c **** *   Sets the Priority of the Interrupt. 
 287:Generated_Source\PSoC5/MODE_ISR.c **** *
 288:Generated_Source\PSoC5/MODE_ISR.c **** *   Note calling MODE_ISR_Start or MODE_ISR_StartEx will 
 289:Generated_Source\PSoC5/MODE_ISR.c **** *   override any effect this API would have had. This API should only be called
 290:Generated_Source\PSoC5/MODE_ISR.c **** *   after MODE_ISR_Start or MODE_ISR_StartEx has been called. 
 291:Generated_Source\PSoC5/MODE_ISR.c **** *   To set the initial priority for the component, use the Design-Wide Resources
 292:Generated_Source\PSoC5/MODE_ISR.c **** *   Interrupt Editor.
 293:Generated_Source\PSoC5/MODE_ISR.c **** *
 294:Generated_Source\PSoC5/MODE_ISR.c **** *   Note This API has no effect on Non-maskable interrupt NMI).
 295:Generated_Source\PSoC5/MODE_ISR.c **** *
 296:Generated_Source\PSoC5/MODE_ISR.c **** * Parameters:
 297:Generated_Source\PSoC5/MODE_ISR.c **** *   priority: Priority of the interrupt, 0 being the highest priority
 298:Generated_Source\PSoC5/MODE_ISR.c **** *             PSoC 3 and PSoC 5LP: Priority is from 0 to 7.
 299:Generated_Source\PSoC5/MODE_ISR.c **** *             PSoC 4: Priority is from 0 to 3.
 300:Generated_Source\PSoC5/MODE_ISR.c **** *
ARM GAS  C:\Users\dmarsch\AppData\Local\Temp\ccUnypUV.s 			page 10


 301:Generated_Source\PSoC5/MODE_ISR.c **** * Return:
 302:Generated_Source\PSoC5/MODE_ISR.c **** *   None
 303:Generated_Source\PSoC5/MODE_ISR.c **** *
 304:Generated_Source\PSoC5/MODE_ISR.c **** *******************************************************************************/
 305:Generated_Source\PSoC5/MODE_ISR.c **** void MODE_ISR_SetPriority(uint8 priority)
 306:Generated_Source\PSoC5/MODE_ISR.c **** {
 214              		.loc 1 306 0
 215              		.cfi_startproc
 216              		@ args = 0, pretend = 0, frame = 0
 217              		@ frame_needed = 0, uses_anonymous_args = 0
 218              		@ link register save eliminated.
 219              	.LVL15:
 307:Generated_Source\PSoC5/MODE_ISR.c ****     *MODE_ISR_INTC_PRIOR = priority << 5;
 220              		.loc 1 307 0
 221 0000 4001     		lsls	r0, r0, #5
 222              	.LVL16:
 223 0002 C0B2     		uxtb	r0, r0
 224 0004 014B     		ldr	r3, .L18
 225 0006 1870     		strb	r0, [r3]
 226 0008 7047     		bx	lr
 227              	.L19:
 228 000a 00BF     		.align	2
 229              	.L18:
 230 000c 00E400E0 		.word	-536812544
 231              		.cfi_endproc
 232              	.LFE6:
 233              		.size	MODE_ISR_SetPriority, .-MODE_ISR_SetPriority
 234              		.section	.text.MODE_ISR_GetPriority,"ax",%progbits
 235              		.align	2
 236              		.global	MODE_ISR_GetPriority
 237              		.thumb
 238              		.thumb_func
 239              		.type	MODE_ISR_GetPriority, %function
 240              	MODE_ISR_GetPriority:
 241              	.LFB7:
 308:Generated_Source\PSoC5/MODE_ISR.c **** }
 309:Generated_Source\PSoC5/MODE_ISR.c **** 
 310:Generated_Source\PSoC5/MODE_ISR.c **** 
 311:Generated_Source\PSoC5/MODE_ISR.c **** /*******************************************************************************
 312:Generated_Source\PSoC5/MODE_ISR.c **** * Function Name: MODE_ISR_GetPriority
 313:Generated_Source\PSoC5/MODE_ISR.c **** ********************************************************************************
 314:Generated_Source\PSoC5/MODE_ISR.c **** *
 315:Generated_Source\PSoC5/MODE_ISR.c **** * Summary:
 316:Generated_Source\PSoC5/MODE_ISR.c **** *   Gets the Priority of the Interrupt.
 317:Generated_Source\PSoC5/MODE_ISR.c **** *
 318:Generated_Source\PSoC5/MODE_ISR.c **** * Parameters:
 319:Generated_Source\PSoC5/MODE_ISR.c **** *   None
 320:Generated_Source\PSoC5/MODE_ISR.c **** *
 321:Generated_Source\PSoC5/MODE_ISR.c **** * Return:
 322:Generated_Source\PSoC5/MODE_ISR.c **** *   Priority of the interrupt, 0 being the highest priority
 323:Generated_Source\PSoC5/MODE_ISR.c **** *    PSoC 3 and PSoC 5LP: Priority is from 0 to 7.
 324:Generated_Source\PSoC5/MODE_ISR.c **** *    PSoC 4: Priority is from 0 to 3.
 325:Generated_Source\PSoC5/MODE_ISR.c **** *
 326:Generated_Source\PSoC5/MODE_ISR.c **** *******************************************************************************/
 327:Generated_Source\PSoC5/MODE_ISR.c **** uint8 MODE_ISR_GetPriority(void)
 328:Generated_Source\PSoC5/MODE_ISR.c **** {
 242              		.loc 1 328 0
ARM GAS  C:\Users\dmarsch\AppData\Local\Temp\ccUnypUV.s 			page 11


 243              		.cfi_startproc
 244              		@ args = 0, pretend = 0, frame = 0
 245              		@ frame_needed = 0, uses_anonymous_args = 0
 246              		@ link register save eliminated.
 329:Generated_Source\PSoC5/MODE_ISR.c ****     uint8 priority;
 330:Generated_Source\PSoC5/MODE_ISR.c **** 
 331:Generated_Source\PSoC5/MODE_ISR.c **** 
 332:Generated_Source\PSoC5/MODE_ISR.c ****     priority = *MODE_ISR_INTC_PRIOR >> 5;
 247              		.loc 1 332 0
 248 0000 014B     		ldr	r3, .L21
 249 0002 1878     		ldrb	r0, [r3]	@ zero_extendqisi2
 250              	.LVL17:
 333:Generated_Source\PSoC5/MODE_ISR.c **** 
 334:Generated_Source\PSoC5/MODE_ISR.c ****     return priority;
 335:Generated_Source\PSoC5/MODE_ISR.c **** }
 251              		.loc 1 335 0
 252 0004 4009     		lsrs	r0, r0, #5
 253              	.LVL18:
 254 0006 7047     		bx	lr
 255              	.L22:
 256              		.align	2
 257              	.L21:
 258 0008 00E400E0 		.word	-536812544
 259              		.cfi_endproc
 260              	.LFE7:
 261              		.size	MODE_ISR_GetPriority, .-MODE_ISR_GetPriority
 262              		.section	.text.MODE_ISR_Enable,"ax",%progbits
 263              		.align	2
 264              		.global	MODE_ISR_Enable
 265              		.thumb
 266              		.thumb_func
 267              		.type	MODE_ISR_Enable, %function
 268              	MODE_ISR_Enable:
 269              	.LFB8:
 336:Generated_Source\PSoC5/MODE_ISR.c **** 
 337:Generated_Source\PSoC5/MODE_ISR.c **** 
 338:Generated_Source\PSoC5/MODE_ISR.c **** /*******************************************************************************
 339:Generated_Source\PSoC5/MODE_ISR.c **** * Function Name: MODE_ISR_Enable
 340:Generated_Source\PSoC5/MODE_ISR.c **** ********************************************************************************
 341:Generated_Source\PSoC5/MODE_ISR.c **** *
 342:Generated_Source\PSoC5/MODE_ISR.c **** * Summary:
 343:Generated_Source\PSoC5/MODE_ISR.c **** *   Enables the interrupt to the interrupt controller. Do not call this function
 344:Generated_Source\PSoC5/MODE_ISR.c **** *   unless ISR_Start() has been called or the functionality of the ISR_Start() 
 345:Generated_Source\PSoC5/MODE_ISR.c **** *   function, which sets the vector and the priority, has been called.
 346:Generated_Source\PSoC5/MODE_ISR.c **** *
 347:Generated_Source\PSoC5/MODE_ISR.c **** * Parameters:
 348:Generated_Source\PSoC5/MODE_ISR.c **** *   None
 349:Generated_Source\PSoC5/MODE_ISR.c **** *
 350:Generated_Source\PSoC5/MODE_ISR.c **** * Return:
 351:Generated_Source\PSoC5/MODE_ISR.c **** *   None
 352:Generated_Source\PSoC5/MODE_ISR.c **** *
 353:Generated_Source\PSoC5/MODE_ISR.c **** *******************************************************************************/
 354:Generated_Source\PSoC5/MODE_ISR.c **** void MODE_ISR_Enable(void)
 355:Generated_Source\PSoC5/MODE_ISR.c **** {
 270              		.loc 1 355 0
 271              		.cfi_startproc
 272              		@ args = 0, pretend = 0, frame = 0
ARM GAS  C:\Users\dmarsch\AppData\Local\Temp\ccUnypUV.s 			page 12


 273              		@ frame_needed = 0, uses_anonymous_args = 0
 274              		@ link register save eliminated.
 356:Generated_Source\PSoC5/MODE_ISR.c ****     /* Enable the general interrupt. */
 357:Generated_Source\PSoC5/MODE_ISR.c ****     *MODE_ISR_INTC_SET_EN = MODE_ISR__INTC_MASK;
 275              		.loc 1 357 0
 276 0000 0122     		movs	r2, #1
 277 0002 014B     		ldr	r3, .L24
 278 0004 1A60     		str	r2, [r3]
 279 0006 7047     		bx	lr
 280              	.L25:
 281              		.align	2
 282              	.L24:
 283 0008 00E100E0 		.word	-536813312
 284              		.cfi_endproc
 285              	.LFE8:
 286              		.size	MODE_ISR_Enable, .-MODE_ISR_Enable
 287              		.section	.text.MODE_ISR_GetState,"ax",%progbits
 288              		.align	2
 289              		.global	MODE_ISR_GetState
 290              		.thumb
 291              		.thumb_func
 292              		.type	MODE_ISR_GetState, %function
 293              	MODE_ISR_GetState:
 294              	.LFB9:
 358:Generated_Source\PSoC5/MODE_ISR.c **** }
 359:Generated_Source\PSoC5/MODE_ISR.c **** 
 360:Generated_Source\PSoC5/MODE_ISR.c **** 
 361:Generated_Source\PSoC5/MODE_ISR.c **** /*******************************************************************************
 362:Generated_Source\PSoC5/MODE_ISR.c **** * Function Name: MODE_ISR_GetState
 363:Generated_Source\PSoC5/MODE_ISR.c **** ********************************************************************************
 364:Generated_Source\PSoC5/MODE_ISR.c **** *
 365:Generated_Source\PSoC5/MODE_ISR.c **** * Summary:
 366:Generated_Source\PSoC5/MODE_ISR.c **** *   Gets the state (enabled, disabled) of the Interrupt.
 367:Generated_Source\PSoC5/MODE_ISR.c **** *
 368:Generated_Source\PSoC5/MODE_ISR.c **** * Parameters:
 369:Generated_Source\PSoC5/MODE_ISR.c **** *   None
 370:Generated_Source\PSoC5/MODE_ISR.c **** *
 371:Generated_Source\PSoC5/MODE_ISR.c **** * Return:
 372:Generated_Source\PSoC5/MODE_ISR.c **** *   1 if enabled, 0 if disabled.
 373:Generated_Source\PSoC5/MODE_ISR.c **** *
 374:Generated_Source\PSoC5/MODE_ISR.c **** *******************************************************************************/
 375:Generated_Source\PSoC5/MODE_ISR.c **** uint8 MODE_ISR_GetState(void)
 376:Generated_Source\PSoC5/MODE_ISR.c **** {
 295              		.loc 1 376 0
 296              		.cfi_startproc
 297              		@ args = 0, pretend = 0, frame = 0
 298              		@ frame_needed = 0, uses_anonymous_args = 0
 299              		@ link register save eliminated.
 377:Generated_Source\PSoC5/MODE_ISR.c ****     /* Get the state of the general interrupt. */
 378:Generated_Source\PSoC5/MODE_ISR.c ****     return ((*MODE_ISR_INTC_SET_EN & (uint32)MODE_ISR__INTC_MASK) != 0u) ? 1u:0u;
 300              		.loc 1 378 0
 301 0000 024B     		ldr	r3, .L27
 302 0002 1868     		ldr	r0, [r3]
 379:Generated_Source\PSoC5/MODE_ISR.c **** }
 303              		.loc 1 379 0
 304 0004 00F00100 		and	r0, r0, #1
 305 0008 7047     		bx	lr
ARM GAS  C:\Users\dmarsch\AppData\Local\Temp\ccUnypUV.s 			page 13


 306              	.L28:
 307 000a 00BF     		.align	2
 308              	.L27:
 309 000c 00E100E0 		.word	-536813312
 310              		.cfi_endproc
 311              	.LFE9:
 312              		.size	MODE_ISR_GetState, .-MODE_ISR_GetState
 313              		.section	.text.MODE_ISR_Disable,"ax",%progbits
 314              		.align	2
 315              		.global	MODE_ISR_Disable
 316              		.thumb
 317              		.thumb_func
 318              		.type	MODE_ISR_Disable, %function
 319              	MODE_ISR_Disable:
 320              	.LFB10:
 380:Generated_Source\PSoC5/MODE_ISR.c **** 
 381:Generated_Source\PSoC5/MODE_ISR.c **** 
 382:Generated_Source\PSoC5/MODE_ISR.c **** /*******************************************************************************
 383:Generated_Source\PSoC5/MODE_ISR.c **** * Function Name: MODE_ISR_Disable
 384:Generated_Source\PSoC5/MODE_ISR.c **** ********************************************************************************
 385:Generated_Source\PSoC5/MODE_ISR.c **** *
 386:Generated_Source\PSoC5/MODE_ISR.c **** * Summary:
 387:Generated_Source\PSoC5/MODE_ISR.c **** *   Disables the Interrupt in the interrupt controller.
 388:Generated_Source\PSoC5/MODE_ISR.c **** *
 389:Generated_Source\PSoC5/MODE_ISR.c **** * Parameters:
 390:Generated_Source\PSoC5/MODE_ISR.c **** *   None
 391:Generated_Source\PSoC5/MODE_ISR.c **** *
 392:Generated_Source\PSoC5/MODE_ISR.c **** * Return:
 393:Generated_Source\PSoC5/MODE_ISR.c **** *   None
 394:Generated_Source\PSoC5/MODE_ISR.c **** *
 395:Generated_Source\PSoC5/MODE_ISR.c **** *******************************************************************************/
 396:Generated_Source\PSoC5/MODE_ISR.c **** void MODE_ISR_Disable(void)
 397:Generated_Source\PSoC5/MODE_ISR.c **** {
 321              		.loc 1 397 0
 322              		.cfi_startproc
 323              		@ args = 0, pretend = 0, frame = 0
 324              		@ frame_needed = 0, uses_anonymous_args = 0
 325              		@ link register save eliminated.
 398:Generated_Source\PSoC5/MODE_ISR.c ****     /* Disable the general interrupt. */
 399:Generated_Source\PSoC5/MODE_ISR.c ****     *MODE_ISR_INTC_CLR_EN = MODE_ISR__INTC_MASK;
 326              		.loc 1 399 0
 327 0000 0122     		movs	r2, #1
 328 0002 014B     		ldr	r3, .L30
 329 0004 1A60     		str	r2, [r3]
 330 0006 7047     		bx	lr
 331              	.L31:
 332              		.align	2
 333              	.L30:
 334 0008 80E100E0 		.word	-536813184
 335              		.cfi_endproc
 336              	.LFE10:
 337              		.size	MODE_ISR_Disable, .-MODE_ISR_Disable
 338              		.section	.text.MODE_ISR_Start,"ax",%progbits
 339              		.align	2
 340              		.global	MODE_ISR_Start
 341              		.thumb
 342              		.thumb_func
ARM GAS  C:\Users\dmarsch\AppData\Local\Temp\ccUnypUV.s 			page 14


 343              		.type	MODE_ISR_Start, %function
 344              	MODE_ISR_Start:
 345              	.LFB0:
  79:Generated_Source\PSoC5/MODE_ISR.c ****     /* For all we know the interrupt is active. */
 346              		.loc 1 79 0
 347              		.cfi_startproc
 348              		@ args = 0, pretend = 0, frame = 0
 349              		@ frame_needed = 0, uses_anonymous_args = 0
 350 0000 08B5     		push	{r3, lr}
 351              		.cfi_def_cfa_offset 8
 352              		.cfi_offset 3, -8
 353              		.cfi_offset 14, -4
  81:Generated_Source\PSoC5/MODE_ISR.c **** 
 354              		.loc 1 81 0
 355 0002 FFF7FEFF 		bl	MODE_ISR_Disable
 356              	.LVL19:
  84:Generated_Source\PSoC5/MODE_ISR.c **** 
 357              		.loc 1 84 0
 358 0006 0448     		ldr	r0, .L34
 359 0008 FFF7FEFF 		bl	MODE_ISR_SetVector
 360              	.LVL20:
  87:Generated_Source\PSoC5/MODE_ISR.c **** 
 361              		.loc 1 87 0
 362 000c 0320     		movs	r0, #3
 363 000e FFF7FEFF 		bl	MODE_ISR_SetPriority
 364              	.LVL21:
  90:Generated_Source\PSoC5/MODE_ISR.c **** }
 365              		.loc 1 90 0
 366 0012 FFF7FEFF 		bl	MODE_ISR_Enable
 367              	.LVL22:
 368 0016 08BD     		pop	{r3, pc}
 369              	.L35:
 370              		.align	2
 371              	.L34:
 372 0018 00000000 		.word	MODE_ISR_Interrupt
 373              		.cfi_endproc
 374              	.LFE0:
 375              		.size	MODE_ISR_Start, .-MODE_ISR_Start
 376              		.section	.text.MODE_ISR_StartEx,"ax",%progbits
 377              		.align	2
 378              		.global	MODE_ISR_StartEx
 379              		.thumb
 380              		.thumb_func
 381              		.type	MODE_ISR_StartEx, %function
 382              	MODE_ISR_StartEx:
 383              	.LFB1:
 122:Generated_Source\PSoC5/MODE_ISR.c ****     /* For all we know the interrupt is active. */
 384              		.loc 1 122 0
 385              		.cfi_startproc
 386              		@ args = 0, pretend = 0, frame = 0
 387              		@ frame_needed = 0, uses_anonymous_args = 0
 388              	.LVL23:
 389 0000 10B5     		push	{r4, lr}
 390              		.cfi_def_cfa_offset 8
 391              		.cfi_offset 4, -8
 392              		.cfi_offset 14, -4
 393 0002 0446     		mov	r4, r0
ARM GAS  C:\Users\dmarsch\AppData\Local\Temp\ccUnypUV.s 			page 15


 124:Generated_Source\PSoC5/MODE_ISR.c **** 
 394              		.loc 1 124 0
 395 0004 FFF7FEFF 		bl	MODE_ISR_Disable
 396              	.LVL24:
 127:Generated_Source\PSoC5/MODE_ISR.c **** 
 397              		.loc 1 127 0
 398 0008 2046     		mov	r0, r4
 399 000a FFF7FEFF 		bl	MODE_ISR_SetVector
 400              	.LVL25:
 130:Generated_Source\PSoC5/MODE_ISR.c **** 
 401              		.loc 1 130 0
 402 000e 0320     		movs	r0, #3
 403 0010 FFF7FEFF 		bl	MODE_ISR_SetPriority
 404              	.LVL26:
 133:Generated_Source\PSoC5/MODE_ISR.c **** }
 405              		.loc 1 133 0
 406 0014 FFF7FEFF 		bl	MODE_ISR_Enable
 407              	.LVL27:
 408 0018 10BD     		pop	{r4, pc}
 409              		.cfi_endproc
 410              	.LFE1:
 411              		.size	MODE_ISR_StartEx, .-MODE_ISR_StartEx
 412 001a 00BF     		.section	.text.MODE_ISR_Stop,"ax",%progbits
 413              		.align	2
 414              		.global	MODE_ISR_Stop
 415              		.thumb
 416              		.thumb_func
 417              		.type	MODE_ISR_Stop, %function
 418              	MODE_ISR_Stop:
 419              	.LFB2:
 152:Generated_Source\PSoC5/MODE_ISR.c ****     /* Disable this interrupt. */
 420              		.loc 1 152 0
 421              		.cfi_startproc
 422              		@ args = 0, pretend = 0, frame = 0
 423              		@ frame_needed = 0, uses_anonymous_args = 0
 424 0000 08B5     		push	{r3, lr}
 425              		.cfi_def_cfa_offset 8
 426              		.cfi_offset 3, -8
 427              		.cfi_offset 14, -4
 154:Generated_Source\PSoC5/MODE_ISR.c **** 
 428              		.loc 1 154 0
 429 0002 FFF7FEFF 		bl	MODE_ISR_Disable
 430              	.LVL28:
 157:Generated_Source\PSoC5/MODE_ISR.c **** }
 431              		.loc 1 157 0
 432 0006 0248     		ldr	r0, .L40
 433 0008 FFF7FEFF 		bl	MODE_ISR_SetVector
 434              	.LVL29:
 435 000c 08BD     		pop	{r3, pc}
 436              	.L41:
 437 000e 00BF     		.align	2
 438              	.L40:
 439 0010 00000000 		.word	IntDefaultHandler
 440              		.cfi_endproc
 441              	.LFE2:
 442              		.size	MODE_ISR_Stop, .-MODE_ISR_Stop
 443              		.section	.text.MODE_ISR_SetPending,"ax",%progbits
ARM GAS  C:\Users\dmarsch\AppData\Local\Temp\ccUnypUV.s 			page 16


 444              		.align	2
 445              		.global	MODE_ISR_SetPending
 446              		.thumb
 447              		.thumb_func
 448              		.type	MODE_ISR_SetPending, %function
 449              	MODE_ISR_SetPending:
 450              	.LFB11:
 400:Generated_Source\PSoC5/MODE_ISR.c **** }
 401:Generated_Source\PSoC5/MODE_ISR.c **** 
 402:Generated_Source\PSoC5/MODE_ISR.c **** 
 403:Generated_Source\PSoC5/MODE_ISR.c **** /*******************************************************************************
 404:Generated_Source\PSoC5/MODE_ISR.c **** * Function Name: MODE_ISR_SetPending
 405:Generated_Source\PSoC5/MODE_ISR.c **** ********************************************************************************
 406:Generated_Source\PSoC5/MODE_ISR.c **** *
 407:Generated_Source\PSoC5/MODE_ISR.c **** * Summary:
 408:Generated_Source\PSoC5/MODE_ISR.c **** *   Causes the Interrupt to enter the pending state, a software method of
 409:Generated_Source\PSoC5/MODE_ISR.c **** *   generating the interrupt.
 410:Generated_Source\PSoC5/MODE_ISR.c **** *
 411:Generated_Source\PSoC5/MODE_ISR.c **** * Parameters:
 412:Generated_Source\PSoC5/MODE_ISR.c **** *   None
 413:Generated_Source\PSoC5/MODE_ISR.c **** *
 414:Generated_Source\PSoC5/MODE_ISR.c **** * Return:
 415:Generated_Source\PSoC5/MODE_ISR.c **** *   None
 416:Generated_Source\PSoC5/MODE_ISR.c **** *
 417:Generated_Source\PSoC5/MODE_ISR.c **** * Side Effects:
 418:Generated_Source\PSoC5/MODE_ISR.c **** *   If interrupts are enabled and the interrupt is set up properly, the ISR is
 419:Generated_Source\PSoC5/MODE_ISR.c **** *   entered (depending on the priority of this interrupt and other pending 
 420:Generated_Source\PSoC5/MODE_ISR.c **** *   interrupts).
 421:Generated_Source\PSoC5/MODE_ISR.c **** *
 422:Generated_Source\PSoC5/MODE_ISR.c **** *******************************************************************************/
 423:Generated_Source\PSoC5/MODE_ISR.c **** void MODE_ISR_SetPending(void)
 424:Generated_Source\PSoC5/MODE_ISR.c **** {
 451              		.loc 1 424 0
 452              		.cfi_startproc
 453              		@ args = 0, pretend = 0, frame = 0
 454              		@ frame_needed = 0, uses_anonymous_args = 0
 455              		@ link register save eliminated.
 425:Generated_Source\PSoC5/MODE_ISR.c ****     *MODE_ISR_INTC_SET_PD = MODE_ISR__INTC_MASK;
 456              		.loc 1 425 0
 457 0000 0122     		movs	r2, #1
 458 0002 014B     		ldr	r3, .L43
 459 0004 1A60     		str	r2, [r3]
 460 0006 7047     		bx	lr
 461              	.L44:
 462              		.align	2
 463              	.L43:
 464 0008 00E200E0 		.word	-536813056
 465              		.cfi_endproc
 466              	.LFE11:
 467              		.size	MODE_ISR_SetPending, .-MODE_ISR_SetPending
 468              		.section	.text.MODE_ISR_ClearPending,"ax",%progbits
 469              		.align	2
 470              		.global	MODE_ISR_ClearPending
 471              		.thumb
 472              		.thumb_func
 473              		.type	MODE_ISR_ClearPending, %function
 474              	MODE_ISR_ClearPending:
ARM GAS  C:\Users\dmarsch\AppData\Local\Temp\ccUnypUV.s 			page 17


 475              	.LFB12:
 426:Generated_Source\PSoC5/MODE_ISR.c **** }
 427:Generated_Source\PSoC5/MODE_ISR.c **** 
 428:Generated_Source\PSoC5/MODE_ISR.c **** 
 429:Generated_Source\PSoC5/MODE_ISR.c **** /*******************************************************************************
 430:Generated_Source\PSoC5/MODE_ISR.c **** * Function Name: MODE_ISR_ClearPending
 431:Generated_Source\PSoC5/MODE_ISR.c **** ********************************************************************************
 432:Generated_Source\PSoC5/MODE_ISR.c **** *
 433:Generated_Source\PSoC5/MODE_ISR.c **** * Summary:
 434:Generated_Source\PSoC5/MODE_ISR.c **** *   Clears a pending interrupt in the interrupt controller.
 435:Generated_Source\PSoC5/MODE_ISR.c **** *
 436:Generated_Source\PSoC5/MODE_ISR.c **** *   Note Some interrupt sources are clear-on-read and require the block 
 437:Generated_Source\PSoC5/MODE_ISR.c **** *   interrupt/status register to be read/cleared with the appropriate block API 
 438:Generated_Source\PSoC5/MODE_ISR.c **** *   (GPIO, UART, and so on). Otherwise the ISR will continue to remain in 
 439:Generated_Source\PSoC5/MODE_ISR.c **** *   pending state even though the interrupt itself is cleared using this API.
 440:Generated_Source\PSoC5/MODE_ISR.c **** *
 441:Generated_Source\PSoC5/MODE_ISR.c **** * Parameters:
 442:Generated_Source\PSoC5/MODE_ISR.c **** *   None
 443:Generated_Source\PSoC5/MODE_ISR.c **** *
 444:Generated_Source\PSoC5/MODE_ISR.c **** * Return:
 445:Generated_Source\PSoC5/MODE_ISR.c **** *   None
 446:Generated_Source\PSoC5/MODE_ISR.c **** *
 447:Generated_Source\PSoC5/MODE_ISR.c **** *******************************************************************************/
 448:Generated_Source\PSoC5/MODE_ISR.c **** void MODE_ISR_ClearPending(void)
 449:Generated_Source\PSoC5/MODE_ISR.c **** {
 476              		.loc 1 449 0
 477              		.cfi_startproc
 478              		@ args = 0, pretend = 0, frame = 0
 479              		@ frame_needed = 0, uses_anonymous_args = 0
 480              		@ link register save eliminated.
 450:Generated_Source\PSoC5/MODE_ISR.c ****     *MODE_ISR_INTC_CLR_PD = MODE_ISR__INTC_MASK;
 481              		.loc 1 450 0
 482 0000 0122     		movs	r2, #1
 483 0002 014B     		ldr	r3, .L46
 484 0004 1A60     		str	r2, [r3]
 485 0006 7047     		bx	lr
 486              	.L47:
 487              		.align	2
 488              	.L46:
 489 0008 80E200E0 		.word	-536812928
 490              		.cfi_endproc
 491              	.LFE12:
 492              		.size	MODE_ISR_ClearPending, .-MODE_ISR_ClearPending
 493              		.comm	POL,1,1
 494              		.comm	setting,1,1
 495              		.text
 496              	.Letext0:
 497              		.file 2 "Generated_Source\\PSoC5/cytypes.h"
 498              		.file 3 "Generated_Source\\PSoC5\\TOUT_ISR.h"
 499              		.file 4 "Generated_Source\\PSoC5\\MOTOR.h"
 500              		.file 5 "Generated_Source\\PSoC5\\MOTOR_ISR.h"
 501              		.section	.debug_info,"",%progbits
 502              	.Ldebug_info0:
 503 0000 EA030000 		.4byte	0x3ea
 504 0004 0400     		.2byte	0x4
 505 0006 00000000 		.4byte	.Ldebug_abbrev0
 506 000a 04       		.byte	0x4
ARM GAS  C:\Users\dmarsch\AppData\Local\Temp\ccUnypUV.s 			page 18


 507 000b 01       		.uleb128 0x1
 508 000c 10010000 		.4byte	.LASF44
 509 0010 0C       		.byte	0xc
 510 0011 8D000000 		.4byte	.LASF45
 511 0015 00000000 		.4byte	.LASF46
 512 0019 00000000 		.4byte	.Ldebug_ranges0+0
 513 001d 00000000 		.4byte	0
 514 0021 00000000 		.4byte	.Ldebug_line0
 515 0025 02       		.uleb128 0x2
 516 0026 04       		.byte	0x4
 517 0027 05       		.byte	0x5
 518 0028 696E7400 		.ascii	"int\000"
 519 002c 03       		.uleb128 0x3
 520 002d 04       		.byte	0x4
 521 002e 07       		.byte	0x7
 522 002f 10020000 		.4byte	.LASF0
 523 0033 03       		.uleb128 0x3
 524 0034 08       		.byte	0x8
 525 0035 05       		.byte	0x5
 526 0036 94020000 		.4byte	.LASF1
 527 003a 03       		.uleb128 0x3
 528 003b 08       		.byte	0x8
 529 003c 04       		.byte	0x4
 530 003d 01030000 		.4byte	.LASF2
 531 0041 03       		.uleb128 0x3
 532 0042 01       		.byte	0x1
 533 0043 06       		.byte	0x6
 534 0044 0D030000 		.4byte	.LASF3
 535 0048 03       		.uleb128 0x3
 536 0049 01       		.byte	0x1
 537 004a 08       		.byte	0x8
 538 004b 02020000 		.4byte	.LASF4
 539 004f 03       		.uleb128 0x3
 540 0050 02       		.byte	0x2
 541 0051 05       		.byte	0x5
 542 0052 E8010000 		.4byte	.LASF5
 543 0056 03       		.uleb128 0x3
 544 0057 02       		.byte	0x2
 545 0058 07       		.byte	0x7
 546 0059 64000000 		.4byte	.LASF6
 547 005d 03       		.uleb128 0x3
 548 005e 04       		.byte	0x4
 549 005f 05       		.byte	0x5
 550 0060 D6020000 		.4byte	.LASF7
 551 0064 03       		.uleb128 0x3
 552 0065 04       		.byte	0x4
 553 0066 07       		.byte	0x7
 554 0067 A3010000 		.4byte	.LASF8
 555 006b 03       		.uleb128 0x3
 556 006c 08       		.byte	0x8
 557 006d 07       		.byte	0x7
 558 006e 2E020000 		.4byte	.LASF9
 559 0072 03       		.uleb128 0x3
 560 0073 04       		.byte	0x4
 561 0074 07       		.byte	0x7
 562 0075 78020000 		.4byte	.LASF10
 563 0079 03       		.uleb128 0x3
ARM GAS  C:\Users\dmarsch\AppData\Local\Temp\ccUnypUV.s 			page 19


 564 007a 01       		.byte	0x1
 565 007b 08       		.byte	0x8
 566 007c A2020000 		.4byte	.LASF11
 567 0080 04       		.uleb128 0x4
 568 0081 04       		.byte	0x4
 569 0082 86000000 		.4byte	0x86
 570 0086 05       		.uleb128 0x5
 571 0087 06       		.uleb128 0x6
 572 0088 B5010000 		.4byte	.LASF12
 573 008c 02       		.byte	0x2
 574 008d E401     		.2byte	0x1e4
 575 008f 48000000 		.4byte	0x48
 576 0093 06       		.uleb128 0x6
 577 0094 FB010000 		.4byte	.LASF13
 578 0098 02       		.byte	0x2
 579 0099 E601     		.2byte	0x1e6
 580 009b 64000000 		.4byte	0x64
 581 009f 03       		.uleb128 0x3
 582 00a0 04       		.byte	0x4
 583 00a1 04       		.byte	0x4
 584 00a2 E2000000 		.4byte	.LASF14
 585 00a6 03       		.uleb128 0x3
 586 00a7 08       		.byte	0x8
 587 00a8 04       		.byte	0x4
 588 00a9 E1010000 		.4byte	.LASF15
 589 00ad 06       		.uleb128 0x6
 590 00ae 9E010000 		.4byte	.LASF16
 591 00b2 02       		.byte	0x2
 592 00b3 8E02     		.2byte	0x28e
 593 00b5 B9000000 		.4byte	0xb9
 594 00b9 07       		.uleb128 0x7
 595 00ba 87000000 		.4byte	0x87
 596 00be 06       		.uleb128 0x6
 597 00bf 30000000 		.4byte	.LASF17
 598 00c3 02       		.byte	0x2
 599 00c4 9002     		.2byte	0x290
 600 00c6 CA000000 		.4byte	0xca
 601 00ca 07       		.uleb128 0x7
 602 00cb 93000000 		.4byte	0x93
 603 00cf 06       		.uleb128 0x6
 604 00d0 58020000 		.4byte	.LASF18
 605 00d4 02       		.byte	0x2
 606 00d5 A002     		.2byte	0x2a0
 607 00d7 80000000 		.4byte	0x80
 608 00db 08       		.uleb128 0x8
 609 00dc 81020000 		.4byte	.LASF19
 610 00e0 01       		.byte	0x1
 611 00e1 B1       		.byte	0xb1
 612 00e2 00000000 		.4byte	.LFB3
 613 00e6 A4000000 		.4byte	.LFE3-.LFB3
 614 00ea 01       		.uleb128 0x1
 615 00eb 9C       		.byte	0x9c
 616 00ec 71010000 		.4byte	0x171
 617 00f0 09       		.uleb128 0x9
 618 00f1 30000000 		.4byte	.LVL0
 619 00f5 AB030000 		.4byte	0x3ab
 620 00f9 09       		.uleb128 0x9
ARM GAS  C:\Users\dmarsch\AppData\Local\Temp\ccUnypUV.s 			page 20


 621 00fa 38000000 		.4byte	.LVL1
 622 00fe B6030000 		.4byte	0x3b6
 623 0102 09       		.uleb128 0x9
 624 0103 3C000000 		.4byte	.LVL2
 625 0107 C1030000 		.4byte	0x3c1
 626 010b 09       		.uleb128 0x9
 627 010c 5A000000 		.4byte	.LVL3
 628 0110 AB030000 		.4byte	0x3ab
 629 0114 09       		.uleb128 0x9
 630 0115 62000000 		.4byte	.LVL4
 631 0119 B6030000 		.4byte	0x3b6
 632 011d 09       		.uleb128 0x9
 633 011e 66000000 		.4byte	.LVL5
 634 0122 C1030000 		.4byte	0x3c1
 635 0126 0A       		.uleb128 0xa
 636 0127 72000000 		.4byte	.LVL6
 637 012b CC030000 		.4byte	0x3cc
 638 012f 39010000 		.4byte	0x139
 639 0133 0B       		.uleb128 0xb
 640 0134 01       		.uleb128 0x1
 641 0135 50       		.byte	0x50
 642 0136 01       		.uleb128 0x1
 643 0137 30       		.byte	0x30
 644 0138 00       		.byte	0
 645 0139 09       		.uleb128 0x9
 646 013a 76000000 		.4byte	.LVL7
 647 013e D7030000 		.4byte	0x3d7
 648 0142 09       		.uleb128 0x9
 649 0143 7A000000 		.4byte	.LVL8
 650 0147 E2030000 		.4byte	0x3e2
 651 014b 0A       		.uleb128 0xa
 652 014c 86000000 		.4byte	.LVL9
 653 0150 CC030000 		.4byte	0x3cc
 654 0154 5E010000 		.4byte	0x15e
 655 0158 0B       		.uleb128 0xb
 656 0159 01       		.uleb128 0x1
 657 015a 50       		.byte	0x50
 658 015b 01       		.uleb128 0x1
 659 015c 30       		.byte	0x30
 660 015d 00       		.byte	0
 661 015e 09       		.uleb128 0x9
 662 015f 8A000000 		.4byte	.LVL10
 663 0163 D7030000 		.4byte	0x3d7
 664 0167 09       		.uleb128 0x9
 665 0168 8E000000 		.4byte	.LVL11
 666 016c E2030000 		.4byte	0x3e2
 667 0170 00       		.byte	0
 668 0171 08       		.uleb128 0x8
 669 0172 FD000000 		.4byte	.LASF20
 670 0176 01       		.byte	0x1
 671 0177 F7       		.byte	0xf7
 672 0178 00000000 		.4byte	.LFB4
 673 017c 0C000000 		.4byte	.LFE4-.LFB4
 674 0180 01       		.uleb128 0x1
 675 0181 9C       		.byte	0x9c
 676 0182 A1010000 		.4byte	0x1a1
 677 0186 0C       		.uleb128 0xc
ARM GAS  C:\Users\dmarsch\AppData\Local\Temp\ccUnypUV.s 			page 21


 678 0187 26020000 		.4byte	.LASF23
 679 018b 01       		.byte	0x1
 680 018c F7       		.byte	0xf7
 681 018d CF000000 		.4byte	0xcf
 682 0191 01       		.uleb128 0x1
 683 0192 50       		.byte	0x50
 684 0193 0D       		.uleb128 0xd
 685 0194 A7020000 		.4byte	.LASF21
 686 0198 01       		.byte	0x1
 687 0199 F9       		.byte	0xf9
 688 019a A1010000 		.4byte	0x1a1
 689 019e 01       		.uleb128 0x1
 690 019f 53       		.byte	0x53
 691 01a0 00       		.byte	0
 692 01a1 04       		.uleb128 0x4
 693 01a2 04       		.byte	0x4
 694 01a3 CF000000 		.4byte	0xcf
 695 01a7 0E       		.uleb128 0xe
 696 01a8 65020000 		.4byte	.LASF25
 697 01ac 01       		.byte	0x1
 698 01ad 0F01     		.2byte	0x10f
 699 01af CF000000 		.4byte	0xcf
 700 01b3 00000000 		.4byte	.LFB5
 701 01b7 0C000000 		.4byte	.LFE5-.LFB5
 702 01bb 01       		.uleb128 0x1
 703 01bc 9C       		.byte	0x9c
 704 01bd D0010000 		.4byte	0x1d0
 705 01c1 0F       		.uleb128 0xf
 706 01c2 A7020000 		.4byte	.LASF21
 707 01c6 01       		.byte	0x1
 708 01c7 1101     		.2byte	0x111
 709 01c9 A1010000 		.4byte	0x1a1
 710 01cd 01       		.uleb128 0x1
 711 01ce 53       		.byte	0x53
 712 01cf 00       		.byte	0
 713 01d0 10       		.uleb128 0x10
 714 01d1 E8000000 		.4byte	.LASF22
 715 01d5 01       		.byte	0x1
 716 01d6 3101     		.2byte	0x131
 717 01d8 00000000 		.4byte	.LFB6
 718 01dc 10000000 		.4byte	.LFE6-.LFB6
 719 01e0 01       		.uleb128 0x1
 720 01e1 9C       		.byte	0x9c
 721 01e2 F7010000 		.4byte	0x1f7
 722 01e6 11       		.uleb128 0x11
 723 01e7 F2010000 		.4byte	.LASF24
 724 01eb 01       		.byte	0x1
 725 01ec 3101     		.2byte	0x131
 726 01ee 87000000 		.4byte	0x87
 727 01f2 00000000 		.4byte	.LLST0
 728 01f6 00       		.byte	0
 729 01f7 0E       		.uleb128 0xe
 730 01f8 CD000000 		.4byte	.LASF26
 731 01fc 01       		.byte	0x1
 732 01fd 4701     		.2byte	0x147
 733 01ff 87000000 		.4byte	0x87
 734 0203 00000000 		.4byte	.LFB7
ARM GAS  C:\Users\dmarsch\AppData\Local\Temp\ccUnypUV.s 			page 22


 735 0207 0C000000 		.4byte	.LFE7-.LFB7
 736 020b 01       		.uleb128 0x1
 737 020c 9C       		.byte	0x9c
 738 020d 22020000 		.4byte	0x222
 739 0211 12       		.uleb128 0x12
 740 0212 F2010000 		.4byte	.LASF24
 741 0216 01       		.byte	0x1
 742 0217 4901     		.2byte	0x149
 743 0219 87000000 		.4byte	0x87
 744 021d 21000000 		.4byte	.LLST1
 745 0221 00       		.byte	0
 746 0222 13       		.uleb128 0x13
 747 0223 D1010000 		.4byte	.LASF27
 748 0227 01       		.byte	0x1
 749 0228 6201     		.2byte	0x162
 750 022a 00000000 		.4byte	.LFB8
 751 022e 0C000000 		.4byte	.LFE8-.LFB8
 752 0232 01       		.uleb128 0x1
 753 0233 9C       		.byte	0x9c
 754 0234 14       		.uleb128 0x14
 755 0235 AF000000 		.4byte	.LASF47
 756 0239 01       		.byte	0x1
 757 023a 7701     		.2byte	0x177
 758 023c 87000000 		.4byte	0x87
 759 0240 00000000 		.4byte	.LFB9
 760 0244 10000000 		.4byte	.LFE9-.LFB9
 761 0248 01       		.uleb128 0x1
 762 0249 9C       		.byte	0x9c
 763 024a 13       		.uleb128 0x13
 764 024b 44000000 		.4byte	.LASF28
 765 024f 01       		.byte	0x1
 766 0250 8C01     		.2byte	0x18c
 767 0252 00000000 		.4byte	.LFB10
 768 0256 0C000000 		.4byte	.LFE10-.LFB10
 769 025a 01       		.uleb128 0x1
 770 025b 9C       		.byte	0x9c
 771 025c 08       		.uleb128 0x8
 772 025d C7020000 		.4byte	.LASF29
 773 0261 01       		.byte	0x1
 774 0262 4E       		.byte	0x4e
 775 0263 00000000 		.4byte	.LFB0
 776 0267 1C000000 		.4byte	.LFE0-.LFB0
 777 026b 01       		.uleb128 0x1
 778 026c 9C       		.byte	0x9c
 779 026d AE020000 		.4byte	0x2ae
 780 0271 09       		.uleb128 0x9
 781 0272 06000000 		.4byte	.LVL19
 782 0276 4A020000 		.4byte	0x24a
 783 027a 0A       		.uleb128 0xa
 784 027b 0C000000 		.4byte	.LVL20
 785 027f 71010000 		.4byte	0x171
 786 0283 91020000 		.4byte	0x291
 787 0287 0B       		.uleb128 0xb
 788 0288 01       		.uleb128 0x1
 789 0289 50       		.byte	0x50
 790 028a 05       		.uleb128 0x5
 791 028b 03       		.byte	0x3
ARM GAS  C:\Users\dmarsch\AppData\Local\Temp\ccUnypUV.s 			page 23


 792 028c 00000000 		.4byte	MODE_ISR_Interrupt
 793 0290 00       		.byte	0
 794 0291 0A       		.uleb128 0xa
 795 0292 12000000 		.4byte	.LVL21
 796 0296 D0010000 		.4byte	0x1d0
 797 029a A4020000 		.4byte	0x2a4
 798 029e 0B       		.uleb128 0xb
 799 029f 01       		.uleb128 0x1
 800 02a0 50       		.byte	0x50
 801 02a1 01       		.uleb128 0x1
 802 02a2 33       		.byte	0x33
 803 02a3 00       		.byte	0
 804 02a4 09       		.uleb128 0x9
 805 02a5 16000000 		.4byte	.LVL22
 806 02a9 22020000 		.4byte	0x222
 807 02ad 00       		.byte	0
 808 02ae 08       		.uleb128 0x8
 809 02af B6020000 		.4byte	.LASF30
 810 02b3 01       		.byte	0x1
 811 02b4 79       		.byte	0x79
 812 02b5 00000000 		.4byte	.LFB1
 813 02b9 1A000000 		.4byte	.LFE1-.LFB1
 814 02bd 01       		.uleb128 0x1
 815 02be 9C       		.byte	0x9c
 816 02bf 0C030000 		.4byte	0x30c
 817 02c3 15       		.uleb128 0x15
 818 02c4 26020000 		.4byte	.LASF23
 819 02c8 01       		.byte	0x1
 820 02c9 79       		.byte	0x79
 821 02ca CF000000 		.4byte	0xcf
 822 02ce 38000000 		.4byte	.LLST2
 823 02d2 09       		.uleb128 0x9
 824 02d3 08000000 		.4byte	.LVL24
 825 02d7 4A020000 		.4byte	0x24a
 826 02db 0A       		.uleb128 0xa
 827 02dc 0E000000 		.4byte	.LVL25
 828 02e0 71010000 		.4byte	0x171
 829 02e4 EF020000 		.4byte	0x2ef
 830 02e8 0B       		.uleb128 0xb
 831 02e9 01       		.uleb128 0x1
 832 02ea 50       		.byte	0x50
 833 02eb 02       		.uleb128 0x2
 834 02ec 74       		.byte	0x74
 835 02ed 00       		.sleb128 0
 836 02ee 00       		.byte	0
 837 02ef 0A       		.uleb128 0xa
 838 02f0 14000000 		.4byte	.LVL26
 839 02f4 D0010000 		.4byte	0x1d0
 840 02f8 02030000 		.4byte	0x302
 841 02fc 0B       		.uleb128 0xb
 842 02fd 01       		.uleb128 0x1
 843 02fe 50       		.byte	0x50
 844 02ff 01       		.uleb128 0x1
 845 0300 33       		.byte	0x33
 846 0301 00       		.byte	0
 847 0302 09       		.uleb128 0x9
 848 0303 18000000 		.4byte	.LVL27
ARM GAS  C:\Users\dmarsch\AppData\Local\Temp\ccUnypUV.s 			page 24


 849 0307 22020000 		.4byte	0x222
 850 030b 00       		.byte	0
 851 030c 08       		.uleb128 0x8
 852 030d F3020000 		.4byte	.LASF31
 853 0311 01       		.byte	0x1
 854 0312 97       		.byte	0x97
 855 0313 00000000 		.4byte	.LFB2
 856 0317 14000000 		.4byte	.LFE2-.LFB2
 857 031b 01       		.uleb128 0x1
 858 031c 9C       		.byte	0x9c
 859 031d 34030000 		.4byte	0x334
 860 0321 09       		.uleb128 0x9
 861 0322 06000000 		.4byte	.LVL28
 862 0326 4A020000 		.4byte	0x24a
 863 032a 09       		.uleb128 0x9
 864 032b 0C000000 		.4byte	.LVL29
 865 032f 71010000 		.4byte	0x171
 866 0333 00       		.byte	0
 867 0334 13       		.uleb128 0x13
 868 0335 DF020000 		.4byte	.LASF32
 869 0339 01       		.byte	0x1
 870 033a A701     		.2byte	0x1a7
 871 033c 00000000 		.4byte	.LFB11
 872 0340 0C000000 		.4byte	.LFE11-.LFB11
 873 0344 01       		.uleb128 0x1
 874 0345 9C       		.byte	0x9c
 875 0346 13       		.uleb128 0x13
 876 0347 77000000 		.4byte	.LASF33
 877 034b 01       		.byte	0x1
 878 034c C001     		.2byte	0x1c0
 879 034e 00000000 		.4byte	.LFB12
 880 0352 0C000000 		.4byte	.LFE12-.LFB12
 881 0356 01       		.uleb128 0x1
 882 0357 9C       		.byte	0x9c
 883 0358 16       		.uleb128 0x16
 884 0359 53020000 		.4byte	.LASF34
 885 035d 01       		.byte	0x1
 886 035e 25       		.byte	0x25
 887 035f 63030000 		.4byte	0x363
 888 0363 07       		.uleb128 0x7
 889 0364 25000000 		.4byte	0x25
 890 0368 16       		.uleb128 0x16
 891 0369 45020000 		.4byte	.LASF35
 892 036d 01       		.byte	0x1
 893 036e 26       		.byte	0x26
 894 036f 87000000 		.4byte	0x87
 895 0373 16       		.uleb128 0x16
 896 0374 1D020000 		.4byte	.LASF36
 897 0378 01       		.byte	0x1
 898 0379 27       		.byte	0x27
 899 037a 87000000 		.4byte	0x87
 900 037e 17       		.uleb128 0x17
 901 037f 544F4C00 		.ascii	"TOL\000"
 902 0383 01       		.byte	0x1
 903 0384 28       		.byte	0x28
 904 0385 87000000 		.4byte	0x87
 905 0389 18       		.uleb128 0x18
ARM GAS  C:\Users\dmarsch\AppData\Local\Temp\ccUnypUV.s 			page 25


 906 038a BB010000 		.4byte	.LASF37
 907 038e 01       		.byte	0x1
 908 038f 2B       		.byte	0x2b
 909 0390 87000000 		.4byte	0x87
 910 0394 05       		.uleb128 0x5
 911 0395 03       		.byte	0x3
 912 0396 00000000 		.4byte	setting
 913 039a 19       		.uleb128 0x19
 914 039b 504F4C00 		.ascii	"POL\000"
 915 039f 01       		.byte	0x1
 916 03a0 2C       		.byte	0x2c
 917 03a1 87000000 		.4byte	0x87
 918 03a5 05       		.uleb128 0x5
 919 03a6 03       		.byte	0x3
 920 03a7 00000000 		.4byte	POL
 921 03ab 1A       		.uleb128 0x1a
 922 03ac 28030000 		.4byte	.LASF38
 923 03b0 28030000 		.4byte	.LASF38
 924 03b4 01       		.byte	0x1
 925 03b5 24       		.byte	0x24
 926 03b6 1A       		.uleb128 0x1a
 927 03b7 36000000 		.4byte	.LASF39
 928 03bb 36000000 		.4byte	.LASF39
 929 03bf 01       		.byte	0x1
 930 03c0 23       		.byte	0x23
 931 03c1 1A       		.uleb128 0x1a
 932 03c2 55000000 		.4byte	.LASF40
 933 03c6 55000000 		.4byte	.LASF40
 934 03ca 03       		.byte	0x3
 935 03cb 17       		.byte	0x17
 936 03cc 1A       		.uleb128 0x1a
 937 03cd C1000000 		.4byte	.LASF41
 938 03d1 C1000000 		.4byte	.LASF41
 939 03d5 04       		.byte	0x4
 940 03d6 26       		.byte	0x26
 941 03d7 1A       		.uleb128 0x1a
 942 03d8 19030000 		.4byte	.LASF42
 943 03dc 19030000 		.4byte	.LASF42
 944 03e0 05       		.byte	0x5
 945 03e1 19       		.byte	0x19
 946 03e2 1A       		.uleb128 0x1a
 947 03e3 C3010000 		.4byte	.LASF43
 948 03e7 C3010000 		.4byte	.LASF43
 949 03eb 03       		.byte	0x3
 950 03ec 19       		.byte	0x19
 951 03ed 00       		.byte	0
 952              		.section	.debug_abbrev,"",%progbits
 953              	.Ldebug_abbrev0:
 954 0000 01       		.uleb128 0x1
 955 0001 11       		.uleb128 0x11
 956 0002 01       		.byte	0x1
 957 0003 25       		.uleb128 0x25
 958 0004 0E       		.uleb128 0xe
 959 0005 13       		.uleb128 0x13
 960 0006 0B       		.uleb128 0xb
 961 0007 03       		.uleb128 0x3
 962 0008 0E       		.uleb128 0xe
ARM GAS  C:\Users\dmarsch\AppData\Local\Temp\ccUnypUV.s 			page 26


 963 0009 1B       		.uleb128 0x1b
 964 000a 0E       		.uleb128 0xe
 965 000b 55       		.uleb128 0x55
 966 000c 17       		.uleb128 0x17
 967 000d 11       		.uleb128 0x11
 968 000e 01       		.uleb128 0x1
 969 000f 10       		.uleb128 0x10
 970 0010 17       		.uleb128 0x17
 971 0011 00       		.byte	0
 972 0012 00       		.byte	0
 973 0013 02       		.uleb128 0x2
 974 0014 24       		.uleb128 0x24
 975 0015 00       		.byte	0
 976 0016 0B       		.uleb128 0xb
 977 0017 0B       		.uleb128 0xb
 978 0018 3E       		.uleb128 0x3e
 979 0019 0B       		.uleb128 0xb
 980 001a 03       		.uleb128 0x3
 981 001b 08       		.uleb128 0x8
 982 001c 00       		.byte	0
 983 001d 00       		.byte	0
 984 001e 03       		.uleb128 0x3
 985 001f 24       		.uleb128 0x24
 986 0020 00       		.byte	0
 987 0021 0B       		.uleb128 0xb
 988 0022 0B       		.uleb128 0xb
 989 0023 3E       		.uleb128 0x3e
 990 0024 0B       		.uleb128 0xb
 991 0025 03       		.uleb128 0x3
 992 0026 0E       		.uleb128 0xe
 993 0027 00       		.byte	0
 994 0028 00       		.byte	0
 995 0029 04       		.uleb128 0x4
 996 002a 0F       		.uleb128 0xf
 997 002b 00       		.byte	0
 998 002c 0B       		.uleb128 0xb
 999 002d 0B       		.uleb128 0xb
 1000 002e 49       		.uleb128 0x49
 1001 002f 13       		.uleb128 0x13
 1002 0030 00       		.byte	0
 1003 0031 00       		.byte	0
 1004 0032 05       		.uleb128 0x5
 1005 0033 15       		.uleb128 0x15
 1006 0034 00       		.byte	0
 1007 0035 27       		.uleb128 0x27
 1008 0036 19       		.uleb128 0x19
 1009 0037 00       		.byte	0
 1010 0038 00       		.byte	0
 1011 0039 06       		.uleb128 0x6
 1012 003a 16       		.uleb128 0x16
 1013 003b 00       		.byte	0
 1014 003c 03       		.uleb128 0x3
 1015 003d 0E       		.uleb128 0xe
 1016 003e 3A       		.uleb128 0x3a
 1017 003f 0B       		.uleb128 0xb
 1018 0040 3B       		.uleb128 0x3b
 1019 0041 05       		.uleb128 0x5
ARM GAS  C:\Users\dmarsch\AppData\Local\Temp\ccUnypUV.s 			page 27


 1020 0042 49       		.uleb128 0x49
 1021 0043 13       		.uleb128 0x13
 1022 0044 00       		.byte	0
 1023 0045 00       		.byte	0
 1024 0046 07       		.uleb128 0x7
 1025 0047 35       		.uleb128 0x35
 1026 0048 00       		.byte	0
 1027 0049 49       		.uleb128 0x49
 1028 004a 13       		.uleb128 0x13
 1029 004b 00       		.byte	0
 1030 004c 00       		.byte	0
 1031 004d 08       		.uleb128 0x8
 1032 004e 2E       		.uleb128 0x2e
 1033 004f 01       		.byte	0x1
 1034 0050 3F       		.uleb128 0x3f
 1035 0051 19       		.uleb128 0x19
 1036 0052 03       		.uleb128 0x3
 1037 0053 0E       		.uleb128 0xe
 1038 0054 3A       		.uleb128 0x3a
 1039 0055 0B       		.uleb128 0xb
 1040 0056 3B       		.uleb128 0x3b
 1041 0057 0B       		.uleb128 0xb
 1042 0058 27       		.uleb128 0x27
 1043 0059 19       		.uleb128 0x19
 1044 005a 11       		.uleb128 0x11
 1045 005b 01       		.uleb128 0x1
 1046 005c 12       		.uleb128 0x12
 1047 005d 06       		.uleb128 0x6
 1048 005e 40       		.uleb128 0x40
 1049 005f 18       		.uleb128 0x18
 1050 0060 9742     		.uleb128 0x2117
 1051 0062 19       		.uleb128 0x19
 1052 0063 01       		.uleb128 0x1
 1053 0064 13       		.uleb128 0x13
 1054 0065 00       		.byte	0
 1055 0066 00       		.byte	0
 1056 0067 09       		.uleb128 0x9
 1057 0068 898201   		.uleb128 0x4109
 1058 006b 00       		.byte	0
 1059 006c 11       		.uleb128 0x11
 1060 006d 01       		.uleb128 0x1
 1061 006e 31       		.uleb128 0x31
 1062 006f 13       		.uleb128 0x13
 1063 0070 00       		.byte	0
 1064 0071 00       		.byte	0
 1065 0072 0A       		.uleb128 0xa
 1066 0073 898201   		.uleb128 0x4109
 1067 0076 01       		.byte	0x1
 1068 0077 11       		.uleb128 0x11
 1069 0078 01       		.uleb128 0x1
 1070 0079 31       		.uleb128 0x31
 1071 007a 13       		.uleb128 0x13
 1072 007b 01       		.uleb128 0x1
 1073 007c 13       		.uleb128 0x13
 1074 007d 00       		.byte	0
 1075 007e 00       		.byte	0
 1076 007f 0B       		.uleb128 0xb
ARM GAS  C:\Users\dmarsch\AppData\Local\Temp\ccUnypUV.s 			page 28


 1077 0080 8A8201   		.uleb128 0x410a
 1078 0083 00       		.byte	0
 1079 0084 02       		.uleb128 0x2
 1080 0085 18       		.uleb128 0x18
 1081 0086 9142     		.uleb128 0x2111
 1082 0088 18       		.uleb128 0x18
 1083 0089 00       		.byte	0
 1084 008a 00       		.byte	0
 1085 008b 0C       		.uleb128 0xc
 1086 008c 05       		.uleb128 0x5
 1087 008d 00       		.byte	0
 1088 008e 03       		.uleb128 0x3
 1089 008f 0E       		.uleb128 0xe
 1090 0090 3A       		.uleb128 0x3a
 1091 0091 0B       		.uleb128 0xb
 1092 0092 3B       		.uleb128 0x3b
 1093 0093 0B       		.uleb128 0xb
 1094 0094 49       		.uleb128 0x49
 1095 0095 13       		.uleb128 0x13
 1096 0096 02       		.uleb128 0x2
 1097 0097 18       		.uleb128 0x18
 1098 0098 00       		.byte	0
 1099 0099 00       		.byte	0
 1100 009a 0D       		.uleb128 0xd
 1101 009b 34       		.uleb128 0x34
 1102 009c 00       		.byte	0
 1103 009d 03       		.uleb128 0x3
 1104 009e 0E       		.uleb128 0xe
 1105 009f 3A       		.uleb128 0x3a
 1106 00a0 0B       		.uleb128 0xb
 1107 00a1 3B       		.uleb128 0x3b
 1108 00a2 0B       		.uleb128 0xb
 1109 00a3 49       		.uleb128 0x49
 1110 00a4 13       		.uleb128 0x13
 1111 00a5 02       		.uleb128 0x2
 1112 00a6 18       		.uleb128 0x18
 1113 00a7 00       		.byte	0
 1114 00a8 00       		.byte	0
 1115 00a9 0E       		.uleb128 0xe
 1116 00aa 2E       		.uleb128 0x2e
 1117 00ab 01       		.byte	0x1
 1118 00ac 3F       		.uleb128 0x3f
 1119 00ad 19       		.uleb128 0x19
 1120 00ae 03       		.uleb128 0x3
 1121 00af 0E       		.uleb128 0xe
 1122 00b0 3A       		.uleb128 0x3a
 1123 00b1 0B       		.uleb128 0xb
 1124 00b2 3B       		.uleb128 0x3b
 1125 00b3 05       		.uleb128 0x5
 1126 00b4 27       		.uleb128 0x27
 1127 00b5 19       		.uleb128 0x19
 1128 00b6 49       		.uleb128 0x49
 1129 00b7 13       		.uleb128 0x13
 1130 00b8 11       		.uleb128 0x11
 1131 00b9 01       		.uleb128 0x1
 1132 00ba 12       		.uleb128 0x12
 1133 00bb 06       		.uleb128 0x6
ARM GAS  C:\Users\dmarsch\AppData\Local\Temp\ccUnypUV.s 			page 29


 1134 00bc 40       		.uleb128 0x40
 1135 00bd 18       		.uleb128 0x18
 1136 00be 9742     		.uleb128 0x2117
 1137 00c0 19       		.uleb128 0x19
 1138 00c1 01       		.uleb128 0x1
 1139 00c2 13       		.uleb128 0x13
 1140 00c3 00       		.byte	0
 1141 00c4 00       		.byte	0
 1142 00c5 0F       		.uleb128 0xf
 1143 00c6 34       		.uleb128 0x34
 1144 00c7 00       		.byte	0
 1145 00c8 03       		.uleb128 0x3
 1146 00c9 0E       		.uleb128 0xe
 1147 00ca 3A       		.uleb128 0x3a
 1148 00cb 0B       		.uleb128 0xb
 1149 00cc 3B       		.uleb128 0x3b
 1150 00cd 05       		.uleb128 0x5
 1151 00ce 49       		.uleb128 0x49
 1152 00cf 13       		.uleb128 0x13
 1153 00d0 02       		.uleb128 0x2
 1154 00d1 18       		.uleb128 0x18
 1155 00d2 00       		.byte	0
 1156 00d3 00       		.byte	0
 1157 00d4 10       		.uleb128 0x10
 1158 00d5 2E       		.uleb128 0x2e
 1159 00d6 01       		.byte	0x1
 1160 00d7 3F       		.uleb128 0x3f
 1161 00d8 19       		.uleb128 0x19
 1162 00d9 03       		.uleb128 0x3
 1163 00da 0E       		.uleb128 0xe
 1164 00db 3A       		.uleb128 0x3a
 1165 00dc 0B       		.uleb128 0xb
 1166 00dd 3B       		.uleb128 0x3b
 1167 00de 05       		.uleb128 0x5
 1168 00df 27       		.uleb128 0x27
 1169 00e0 19       		.uleb128 0x19
 1170 00e1 11       		.uleb128 0x11
 1171 00e2 01       		.uleb128 0x1
 1172 00e3 12       		.uleb128 0x12
 1173 00e4 06       		.uleb128 0x6
 1174 00e5 40       		.uleb128 0x40
 1175 00e6 18       		.uleb128 0x18
 1176 00e7 9742     		.uleb128 0x2117
 1177 00e9 19       		.uleb128 0x19
 1178 00ea 01       		.uleb128 0x1
 1179 00eb 13       		.uleb128 0x13
 1180 00ec 00       		.byte	0
 1181 00ed 00       		.byte	0
 1182 00ee 11       		.uleb128 0x11
 1183 00ef 05       		.uleb128 0x5
 1184 00f0 00       		.byte	0
 1185 00f1 03       		.uleb128 0x3
 1186 00f2 0E       		.uleb128 0xe
 1187 00f3 3A       		.uleb128 0x3a
 1188 00f4 0B       		.uleb128 0xb
 1189 00f5 3B       		.uleb128 0x3b
 1190 00f6 05       		.uleb128 0x5
ARM GAS  C:\Users\dmarsch\AppData\Local\Temp\ccUnypUV.s 			page 30


 1191 00f7 49       		.uleb128 0x49
 1192 00f8 13       		.uleb128 0x13
 1193 00f9 02       		.uleb128 0x2
 1194 00fa 17       		.uleb128 0x17
 1195 00fb 00       		.byte	0
 1196 00fc 00       		.byte	0
 1197 00fd 12       		.uleb128 0x12
 1198 00fe 34       		.uleb128 0x34
 1199 00ff 00       		.byte	0
 1200 0100 03       		.uleb128 0x3
 1201 0101 0E       		.uleb128 0xe
 1202 0102 3A       		.uleb128 0x3a
 1203 0103 0B       		.uleb128 0xb
 1204 0104 3B       		.uleb128 0x3b
 1205 0105 05       		.uleb128 0x5
 1206 0106 49       		.uleb128 0x49
 1207 0107 13       		.uleb128 0x13
 1208 0108 02       		.uleb128 0x2
 1209 0109 17       		.uleb128 0x17
 1210 010a 00       		.byte	0
 1211 010b 00       		.byte	0
 1212 010c 13       		.uleb128 0x13
 1213 010d 2E       		.uleb128 0x2e
 1214 010e 00       		.byte	0
 1215 010f 3F       		.uleb128 0x3f
 1216 0110 19       		.uleb128 0x19
 1217 0111 03       		.uleb128 0x3
 1218 0112 0E       		.uleb128 0xe
 1219 0113 3A       		.uleb128 0x3a
 1220 0114 0B       		.uleb128 0xb
 1221 0115 3B       		.uleb128 0x3b
 1222 0116 05       		.uleb128 0x5
 1223 0117 27       		.uleb128 0x27
 1224 0118 19       		.uleb128 0x19
 1225 0119 11       		.uleb128 0x11
 1226 011a 01       		.uleb128 0x1
 1227 011b 12       		.uleb128 0x12
 1228 011c 06       		.uleb128 0x6
 1229 011d 40       		.uleb128 0x40
 1230 011e 18       		.uleb128 0x18
 1231 011f 9742     		.uleb128 0x2117
 1232 0121 19       		.uleb128 0x19
 1233 0122 00       		.byte	0
 1234 0123 00       		.byte	0
 1235 0124 14       		.uleb128 0x14
 1236 0125 2E       		.uleb128 0x2e
 1237 0126 00       		.byte	0
 1238 0127 3F       		.uleb128 0x3f
 1239 0128 19       		.uleb128 0x19
 1240 0129 03       		.uleb128 0x3
 1241 012a 0E       		.uleb128 0xe
 1242 012b 3A       		.uleb128 0x3a
 1243 012c 0B       		.uleb128 0xb
 1244 012d 3B       		.uleb128 0x3b
 1245 012e 05       		.uleb128 0x5
 1246 012f 27       		.uleb128 0x27
 1247 0130 19       		.uleb128 0x19
ARM GAS  C:\Users\dmarsch\AppData\Local\Temp\ccUnypUV.s 			page 31


 1248 0131 49       		.uleb128 0x49
 1249 0132 13       		.uleb128 0x13
 1250 0133 11       		.uleb128 0x11
 1251 0134 01       		.uleb128 0x1
 1252 0135 12       		.uleb128 0x12
 1253 0136 06       		.uleb128 0x6
 1254 0137 40       		.uleb128 0x40
 1255 0138 18       		.uleb128 0x18
 1256 0139 9742     		.uleb128 0x2117
 1257 013b 19       		.uleb128 0x19
 1258 013c 00       		.byte	0
 1259 013d 00       		.byte	0
 1260 013e 15       		.uleb128 0x15
 1261 013f 05       		.uleb128 0x5
 1262 0140 00       		.byte	0
 1263 0141 03       		.uleb128 0x3
 1264 0142 0E       		.uleb128 0xe
 1265 0143 3A       		.uleb128 0x3a
 1266 0144 0B       		.uleb128 0xb
 1267 0145 3B       		.uleb128 0x3b
 1268 0146 0B       		.uleb128 0xb
 1269 0147 49       		.uleb128 0x49
 1270 0148 13       		.uleb128 0x13
 1271 0149 02       		.uleb128 0x2
 1272 014a 17       		.uleb128 0x17
 1273 014b 00       		.byte	0
 1274 014c 00       		.byte	0
 1275 014d 16       		.uleb128 0x16
 1276 014e 34       		.uleb128 0x34
 1277 014f 00       		.byte	0
 1278 0150 03       		.uleb128 0x3
 1279 0151 0E       		.uleb128 0xe
 1280 0152 3A       		.uleb128 0x3a
 1281 0153 0B       		.uleb128 0xb
 1282 0154 3B       		.uleb128 0x3b
 1283 0155 0B       		.uleb128 0xb
 1284 0156 49       		.uleb128 0x49
 1285 0157 13       		.uleb128 0x13
 1286 0158 3F       		.uleb128 0x3f
 1287 0159 19       		.uleb128 0x19
 1288 015a 3C       		.uleb128 0x3c
 1289 015b 19       		.uleb128 0x19
 1290 015c 00       		.byte	0
 1291 015d 00       		.byte	0
 1292 015e 17       		.uleb128 0x17
 1293 015f 34       		.uleb128 0x34
 1294 0160 00       		.byte	0
 1295 0161 03       		.uleb128 0x3
 1296 0162 08       		.uleb128 0x8
 1297 0163 3A       		.uleb128 0x3a
 1298 0164 0B       		.uleb128 0xb
 1299 0165 3B       		.uleb128 0x3b
 1300 0166 0B       		.uleb128 0xb
 1301 0167 49       		.uleb128 0x49
 1302 0168 13       		.uleb128 0x13
 1303 0169 3F       		.uleb128 0x3f
 1304 016a 19       		.uleb128 0x19
ARM GAS  C:\Users\dmarsch\AppData\Local\Temp\ccUnypUV.s 			page 32


 1305 016b 3C       		.uleb128 0x3c
 1306 016c 19       		.uleb128 0x19
 1307 016d 00       		.byte	0
 1308 016e 00       		.byte	0
 1309 016f 18       		.uleb128 0x18
 1310 0170 34       		.uleb128 0x34
 1311 0171 00       		.byte	0
 1312 0172 03       		.uleb128 0x3
 1313 0173 0E       		.uleb128 0xe
 1314 0174 3A       		.uleb128 0x3a
 1315 0175 0B       		.uleb128 0xb
 1316 0176 3B       		.uleb128 0x3b
 1317 0177 0B       		.uleb128 0xb
 1318 0178 49       		.uleb128 0x49
 1319 0179 13       		.uleb128 0x13
 1320 017a 3F       		.uleb128 0x3f
 1321 017b 19       		.uleb128 0x19
 1322 017c 02       		.uleb128 0x2
 1323 017d 18       		.uleb128 0x18
 1324 017e 00       		.byte	0
 1325 017f 00       		.byte	0
 1326 0180 19       		.uleb128 0x19
 1327 0181 34       		.uleb128 0x34
 1328 0182 00       		.byte	0
 1329 0183 03       		.uleb128 0x3
 1330 0184 08       		.uleb128 0x8
 1331 0185 3A       		.uleb128 0x3a
 1332 0186 0B       		.uleb128 0xb
 1333 0187 3B       		.uleb128 0x3b
 1334 0188 0B       		.uleb128 0xb
 1335 0189 49       		.uleb128 0x49
 1336 018a 13       		.uleb128 0x13
 1337 018b 3F       		.uleb128 0x3f
 1338 018c 19       		.uleb128 0x19
 1339 018d 02       		.uleb128 0x2
 1340 018e 18       		.uleb128 0x18
 1341 018f 00       		.byte	0
 1342 0190 00       		.byte	0
 1343 0191 1A       		.uleb128 0x1a
 1344 0192 2E       		.uleb128 0x2e
 1345 0193 00       		.byte	0
 1346 0194 3F       		.uleb128 0x3f
 1347 0195 19       		.uleb128 0x19
 1348 0196 3C       		.uleb128 0x3c
 1349 0197 19       		.uleb128 0x19
 1350 0198 6E       		.uleb128 0x6e
 1351 0199 0E       		.uleb128 0xe
 1352 019a 03       		.uleb128 0x3
 1353 019b 0E       		.uleb128 0xe
 1354 019c 3A       		.uleb128 0x3a
 1355 019d 0B       		.uleb128 0xb
 1356 019e 3B       		.uleb128 0x3b
 1357 019f 0B       		.uleb128 0xb
 1358 01a0 00       		.byte	0
 1359 01a1 00       		.byte	0
 1360 01a2 00       		.byte	0
 1361              		.section	.debug_loc,"",%progbits
ARM GAS  C:\Users\dmarsch\AppData\Local\Temp\ccUnypUV.s 			page 33


 1362              	.Ldebug_loc0:
 1363              	.LLST0:
 1364 0000 00000000 		.4byte	.LVL15
 1365 0004 02000000 		.4byte	.LVL16
 1366 0008 0100     		.2byte	0x1
 1367 000a 50       		.byte	0x50
 1368 000b 02000000 		.4byte	.LVL16
 1369 000f 10000000 		.4byte	.LFE6
 1370 0013 0400     		.2byte	0x4
 1371 0015 F3       		.byte	0xf3
 1372 0016 01       		.uleb128 0x1
 1373 0017 50       		.byte	0x50
 1374 0018 9F       		.byte	0x9f
 1375 0019 00000000 		.4byte	0
 1376 001d 00000000 		.4byte	0
 1377              	.LLST1:
 1378 0021 04000000 		.4byte	.LVL17
 1379 0025 06000000 		.4byte	.LVL18
 1380 0029 0500     		.2byte	0x5
 1381 002b 70       		.byte	0x70
 1382 002c 00       		.sleb128 0
 1383 002d 35       		.byte	0x35
 1384 002e 25       		.byte	0x25
 1385 002f 9F       		.byte	0x9f
 1386 0030 00000000 		.4byte	0
 1387 0034 00000000 		.4byte	0
 1388              	.LLST2:
 1389 0038 00000000 		.4byte	.LVL23
 1390 003c 07000000 		.4byte	.LVL24-1
 1391 0040 0100     		.2byte	0x1
 1392 0042 50       		.byte	0x50
 1393 0043 07000000 		.4byte	.LVL24-1
 1394 0047 1A000000 		.4byte	.LFE1
 1395 004b 0100     		.2byte	0x1
 1396 004d 54       		.byte	0x54
 1397 004e 00000000 		.4byte	0
 1398 0052 00000000 		.4byte	0
 1399              		.section	.debug_aranges,"",%progbits
 1400 0000 7C000000 		.4byte	0x7c
 1401 0004 0200     		.2byte	0x2
 1402 0006 00000000 		.4byte	.Ldebug_info0
 1403 000a 04       		.byte	0x4
 1404 000b 00       		.byte	0
 1405 000c 0000     		.2byte	0
 1406 000e 0000     		.2byte	0
 1407 0010 00000000 		.4byte	.LFB3
 1408 0014 A4000000 		.4byte	.LFE3-.LFB3
 1409 0018 00000000 		.4byte	.LFB4
 1410 001c 0C000000 		.4byte	.LFE4-.LFB4
 1411 0020 00000000 		.4byte	.LFB5
 1412 0024 0C000000 		.4byte	.LFE5-.LFB5
 1413 0028 00000000 		.4byte	.LFB6
 1414 002c 10000000 		.4byte	.LFE6-.LFB6
 1415 0030 00000000 		.4byte	.LFB7
 1416 0034 0C000000 		.4byte	.LFE7-.LFB7
 1417 0038 00000000 		.4byte	.LFB8
 1418 003c 0C000000 		.4byte	.LFE8-.LFB8
ARM GAS  C:\Users\dmarsch\AppData\Local\Temp\ccUnypUV.s 			page 34


 1419 0040 00000000 		.4byte	.LFB9
 1420 0044 10000000 		.4byte	.LFE9-.LFB9
 1421 0048 00000000 		.4byte	.LFB10
 1422 004c 0C000000 		.4byte	.LFE10-.LFB10
 1423 0050 00000000 		.4byte	.LFB0
 1424 0054 1C000000 		.4byte	.LFE0-.LFB0
 1425 0058 00000000 		.4byte	.LFB1
 1426 005c 1A000000 		.4byte	.LFE1-.LFB1
 1427 0060 00000000 		.4byte	.LFB2
 1428 0064 14000000 		.4byte	.LFE2-.LFB2
 1429 0068 00000000 		.4byte	.LFB11
 1430 006c 0C000000 		.4byte	.LFE11-.LFB11
 1431 0070 00000000 		.4byte	.LFB12
 1432 0074 0C000000 		.4byte	.LFE12-.LFB12
 1433 0078 00000000 		.4byte	0
 1434 007c 00000000 		.4byte	0
 1435              		.section	.debug_ranges,"",%progbits
 1436              	.Ldebug_ranges0:
 1437 0000 00000000 		.4byte	.LFB3
 1438 0004 A4000000 		.4byte	.LFE3
 1439 0008 00000000 		.4byte	.LFB4
 1440 000c 0C000000 		.4byte	.LFE4
 1441 0010 00000000 		.4byte	.LFB5
 1442 0014 0C000000 		.4byte	.LFE5
 1443 0018 00000000 		.4byte	.LFB6
 1444 001c 10000000 		.4byte	.LFE6
 1445 0020 00000000 		.4byte	.LFB7
 1446 0024 0C000000 		.4byte	.LFE7
 1447 0028 00000000 		.4byte	.LFB8
 1448 002c 0C000000 		.4byte	.LFE8
 1449 0030 00000000 		.4byte	.LFB9
 1450 0034 10000000 		.4byte	.LFE9
 1451 0038 00000000 		.4byte	.LFB10
 1452 003c 0C000000 		.4byte	.LFE10
 1453 0040 00000000 		.4byte	.LFB0
 1454 0044 1C000000 		.4byte	.LFE0
 1455 0048 00000000 		.4byte	.LFB1
 1456 004c 1A000000 		.4byte	.LFE1
 1457 0050 00000000 		.4byte	.LFB2
 1458 0054 14000000 		.4byte	.LFE2
 1459 0058 00000000 		.4byte	.LFB11
 1460 005c 0C000000 		.4byte	.LFE11
 1461 0060 00000000 		.4byte	.LFB12
 1462 0064 0C000000 		.4byte	.LFE12
 1463 0068 00000000 		.4byte	0
 1464 006c 00000000 		.4byte	0
 1465              		.section	.debug_line,"",%progbits
 1466              	.Ldebug_line0:
 1467 0000 71010000 		.section	.debug_str,"MS",%progbits,1
 1467      02006D00 
 1467      00000201 
 1467      FB0E0D00 
 1467      01010101 
 1468              	.LASF46:
 1469 0000 433A5C55 		.ascii	"C:\\Users\\dmarsch\\Documents\\lab7\\lab7\\lab7.cyd"
 1469      73657273 
 1469      5C646D61 
ARM GAS  C:\Users\dmarsch\AppData\Local\Temp\ccUnypUV.s 			page 35


 1469      72736368 
 1469      5C446F63 
 1470 002d 736E00   		.ascii	"sn\000"
 1471              	.LASF17:
 1472 0030 72656733 		.ascii	"reg32\000"
 1472      3200
 1473              	.LASF39:
 1474 0036 61636365 		.ascii	"access_config\000"
 1474      73735F63 
 1474      6F6E6669 
 1474      6700
 1475              	.LASF28:
 1476 0044 4D4F4445 		.ascii	"MODE_ISR_Disable\000"
 1476      5F495352 
 1476      5F446973 
 1476      61626C65 
 1476      00
 1477              	.LASF40:
 1478 0055 544F5554 		.ascii	"TOUT_ISR_Start\000"
 1478      5F495352 
 1478      5F537461 
 1478      727400
 1479              	.LASF6:
 1480 0064 73686F72 		.ascii	"short unsigned int\000"
 1480      7420756E 
 1480      7369676E 
 1480      65642069 
 1480      6E7400
 1481              	.LASF33:
 1482 0077 4D4F4445 		.ascii	"MODE_ISR_ClearPending\000"
 1482      5F495352 
 1482      5F436C65 
 1482      61725065 
 1482      6E64696E 
 1483              	.LASF45:
 1484 008d 47656E65 		.ascii	"Generated_Source\\PSoC5\\MODE_ISR.c\000"
 1484      72617465 
 1484      645F536F 
 1484      75726365 
 1484      5C50536F 
 1485              	.LASF47:
 1486 00af 4D4F4445 		.ascii	"MODE_ISR_GetState\000"
 1486      5F495352 
 1486      5F476574 
 1486      53746174 
 1486      6500
 1487              	.LASF41:
 1488 00c1 4D4F544F 		.ascii	"MOTOR_Write\000"
 1488      525F5772 
 1488      69746500 
 1489              	.LASF26:
 1490 00cd 4D4F4445 		.ascii	"MODE_ISR_GetPriority\000"
 1490      5F495352 
 1490      5F476574 
 1490      5072696F 
 1490      72697479 
 1491              	.LASF14:
ARM GAS  C:\Users\dmarsch\AppData\Local\Temp\ccUnypUV.s 			page 36


 1492 00e2 666C6F61 		.ascii	"float\000"
 1492      7400
 1493              	.LASF22:
 1494 00e8 4D4F4445 		.ascii	"MODE_ISR_SetPriority\000"
 1494      5F495352 
 1494      5F536574 
 1494      5072696F 
 1494      72697479 
 1495              	.LASF20:
 1496 00fd 4D4F4445 		.ascii	"MODE_ISR_SetVector\000"
 1496      5F495352 
 1496      5F536574 
 1496      56656374 
 1496      6F7200
 1497              	.LASF44:
 1498 0110 474E5520 		.ascii	"GNU C11 5.4.1 20160609 (release) [ARM/embedded-5-br"
 1498      43313120 
 1498      352E342E 
 1498      31203230 
 1498      31363036 
 1499 0143 616E6368 		.ascii	"anch revision 237715] -mcpu=cortex-m3 -mthumb -g -O"
 1499      20726576 
 1499      6973696F 
 1499      6E203233 
 1499      37373135 
 1500 0176 67202D66 		.ascii	"g -ffunction-sections -ffat-lto-objects\000"
 1500      66756E63 
 1500      74696F6E 
 1500      2D736563 
 1500      74696F6E 
 1501              	.LASF16:
 1502 019e 72656738 		.ascii	"reg8\000"
 1502      00
 1503              	.LASF8:
 1504 01a3 6C6F6E67 		.ascii	"long unsigned int\000"
 1504      20756E73 
 1504      69676E65 
 1504      6420696E 
 1504      7400
 1505              	.LASF12:
 1506 01b5 75696E74 		.ascii	"uint8\000"
 1506      3800
 1507              	.LASF37:
 1508 01bb 73657474 		.ascii	"setting\000"
 1508      696E6700 
 1509              	.LASF43:
 1510 01c3 544F5554 		.ascii	"TOUT_ISR_Stop\000"
 1510      5F495352 
 1510      5F53746F 
 1510      7000
 1511              	.LASF27:
 1512 01d1 4D4F4445 		.ascii	"MODE_ISR_Enable\000"
 1512      5F495352 
 1512      5F456E61 
 1512      626C6500 
 1513              	.LASF15:
 1514 01e1 646F7562 		.ascii	"double\000"
ARM GAS  C:\Users\dmarsch\AppData\Local\Temp\ccUnypUV.s 			page 37


 1514      6C6500
 1515              	.LASF5:
 1516 01e8 73686F72 		.ascii	"short int\000"
 1516      7420696E 
 1516      7400
 1517              	.LASF24:
 1518 01f2 7072696F 		.ascii	"priority\000"
 1518      72697479 
 1518      00
 1519              	.LASF13:
 1520 01fb 75696E74 		.ascii	"uint32\000"
 1520      333200
 1521              	.LASF4:
 1522 0202 756E7369 		.ascii	"unsigned char\000"
 1522      676E6564 
 1522      20636861 
 1522      7200
 1523              	.LASF0:
 1524 0210 756E7369 		.ascii	"unsigned int\000"
 1524      676E6564 
 1524      20696E74 
 1524      00
 1525              	.LASF36:
 1526 021d 73657470 		.ascii	"setpoint\000"
 1526      6F696E74 
 1526      00
 1527              	.LASF23:
 1528 0226 61646472 		.ascii	"address\000"
 1528      65737300 
 1529              	.LASF9:
 1530 022e 6C6F6E67 		.ascii	"long long unsigned int\000"
 1530      206C6F6E 
 1530      6720756E 
 1530      7369676E 
 1530      65642069 
 1531              	.LASF35:
 1532 0245 736C6176 		.ascii	"slave_address\000"
 1532      655F6164 
 1532      64726573 
 1532      7300
 1533              	.LASF34:
 1534 0253 6D6F6465 		.ascii	"mode\000"
 1534      00
 1535              	.LASF18:
 1536 0258 63796973 		.ascii	"cyisraddress\000"
 1536      72616464 
 1536      72657373 
 1536      00
 1537              	.LASF25:
 1538 0265 4D4F4445 		.ascii	"MODE_ISR_GetVector\000"
 1538      5F495352 
 1538      5F476574 
 1538      56656374 
 1538      6F7200
 1539              	.LASF10:
 1540 0278 73697A65 		.ascii	"sizetype\000"
 1540      74797065 
ARM GAS  C:\Users\dmarsch\AppData\Local\Temp\ccUnypUV.s 			page 38


 1540      00
 1541              	.LASF19:
 1542 0281 4D4F4445 		.ascii	"MODE_ISR_Interrupt\000"
 1542      5F495352 
 1542      5F496E74 
 1542      65727275 
 1542      707400
 1543              	.LASF1:
 1544 0294 6C6F6E67 		.ascii	"long long int\000"
 1544      206C6F6E 
 1544      6720696E 
 1544      7400
 1545              	.LASF11:
 1546 02a2 63686172 		.ascii	"char\000"
 1546      00
 1547              	.LASF21:
 1548 02a7 72616D56 		.ascii	"ramVectorTable\000"
 1548      6563746F 
 1548      72546162 
 1548      6C6500
 1549              	.LASF30:
 1550 02b6 4D4F4445 		.ascii	"MODE_ISR_StartEx\000"
 1550      5F495352 
 1550      5F537461 
 1550      72744578 
 1550      00
 1551              	.LASF29:
 1552 02c7 4D4F4445 		.ascii	"MODE_ISR_Start\000"
 1552      5F495352 
 1552      5F537461 
 1552      727400
 1553              	.LASF7:
 1554 02d6 6C6F6E67 		.ascii	"long int\000"
 1554      20696E74 
 1554      00
 1555              	.LASF32:
 1556 02df 4D4F4445 		.ascii	"MODE_ISR_SetPending\000"
 1556      5F495352 
 1556      5F536574 
 1556      50656E64 
 1556      696E6700 
 1557              	.LASF31:
 1558 02f3 4D4F4445 		.ascii	"MODE_ISR_Stop\000"
 1558      5F495352 
 1558      5F53746F 
 1558      7000
 1559              	.LASF2:
 1560 0301 6C6F6E67 		.ascii	"long double\000"
 1560      20646F75 
 1560      626C6500 
 1561              	.LASF3:
 1562 030d 7369676E 		.ascii	"signed char\000"
 1562      65642063 
 1562      68617200 
 1563              	.LASF42:
 1564 0319 4D4F544F 		.ascii	"MOTOR_ISR_Stop\000"
 1564      525F4953 
ARM GAS  C:\Users\dmarsch\AppData\Local\Temp\ccUnypUV.s 			page 39


 1564      525F5374 
 1564      6F7000
 1565              	.LASF38:
 1566 0328 77726974 		.ascii	"write_deadband\000"
 1566      655F6465 
 1566      61646261 
 1566      6E6400
 1567              		.ident	"GCC: (GNU Tools for ARM Embedded Processors) 5.4.1 20160609 (release) [ARM/embedded-5-bran
